EESchema Schematic File Version 2
LIBS:power
LIBS:device
LIBS:switches
LIBS:relays
LIBS:motors
LIBS:transistors
LIBS:conn
LIBS:linear
LIBS:regul
LIBS:74xx
LIBS:cmos4000
LIBS:adc-dac
LIBS:memory
LIBS:xilinx
LIBS:microcontrollers
LIBS:dsp
LIBS:microchip
LIBS:analog_switches
LIBS:motorola
LIBS:texas
LIBS:intel
LIBS:audio
LIBS:interface
LIBS:digital-audio
LIBS:philips
LIBS:display
LIBS:cypress
LIBS:siliconi
LIBS:opto
LIBS:atmel
LIBS:contrib
LIBS:valves
LIBS:digisparkpro
LIBS:almir-cache
EELAYER 25 0
EELAYER END
$Descr A4 8268 11693 portrait
encoding utf-8
Sheet 1 1
Title "Auto Lowering Mirror In Reverse"
Date "2018-09-27"
Rev ""
Comp "Chickenmarkus"
Comment1 ""
Comment2 ""
Comment3 ""
Comment4 ""
$EndDescr
$Comp
L D D1
U 1 1 5BACA14D
P 3700 4950
F 0 "D1" H 3700 5050 50  0000 C CNN
F 1 "D" H 3700 4850 50  0000 C CNN
F 2 "Diodes_THT:D_DO-35_SOD27_P7.62mm_Horizontal" H 3700 4950 50  0001 C CNN
F 3 "" H 3700 4950 50  0001 C CNN
	1    3700 4950
	0    1    1    0   
$EndComp
$Comp
L DigisparkPro DS1
U 1 1 5BACA7F7
P 4100 6300
F 0 "DS1" H 4550 6850 60  0000 C CNN
F 1 "DigisparkPro" H 3650 6850 60  0000 C CNN
F 2 "digisparkpro:digisparkpro" H 4100 6300 60  0001 C CNN
F 3 "" H 4100 6300 60  0001 C CNN
	1    4100 6300
	0    1    1    0   
$EndComp
$Comp
L C C3
U 1 1 5BACA827
P 3000 3750
F 0 "C3" H 3025 3850 50  0000 L CNN
F 1 "0.1uF" H 3025 3650 50  0000 L CNN
F 2 "Capacitors_THT:C_Disc_D4.7mm_W2.5mm_P5.00mm" H 3038 3600 50  0001 C CNN
F 3 "" H 3000 3750 50  0001 C CNN
	1    3000 3750
	1    0    0    -1  
$EndComp
$Comp
L GND #PWR01
U 1 1 5BACAB48
P 7200 800
F 0 "#PWR01" H 7200 550 50  0001 C CNN
F 1 "GND" H 7200 650 50  0000 C CNN
F 2 "" H 7200 800 50  0001 C CNN
F 3 "" H 7200 800 50  0001 C CNN
	1    7200 800 
	1    0    0    -1  
$EndComp
$Comp
L Q_NMOS_DGS Q2
U 1 1 5BACAD7A
P 5800 2500
F 0 "Q2" H 6000 2550 50  0000 L CNN
F 1 "Q_NMOS_DGS" H 6000 2450 50  0000 L CNN
F 2 "" H 6000 2600 50  0001 C CNN
F 3 "" H 5800 2500 50  0001 C CNN
	1    5800 2500
	1    0    0    -1  
$EndComp
$Comp
L R R13
U 1 1 5BACAEB9
P 5250 1900
F 0 "R13" V 5330 1900 50  0000 C CNN
F 1 "1K" V 5250 1900 50  0000 C CNN
F 2 "Resistors_THT:R_Axial_DIN0309_L9.0mm_D3.2mm_P12.70mm_Horizontal" V 5180 1900 50  0001 C CNN
F 3 "" H 5250 1900 50  0001 C CNN
	1    5250 1900
	0    -1   1    0   
$EndComp
$Comp
L R R15
U 1 1 5BACB2A9
P 5250 2500
F 0 "R15" V 5330 2500 50  0000 C CNN
F 1 "1K" V 5250 2500 50  0000 C CNN
F 2 "Resistors_THT:R_Axial_DIN0309_L9.0mm_D3.2mm_P12.70mm_Horizontal" V 5180 2500 50  0001 C CNN
F 3 "" H 5250 2500 50  0001 C CNN
	1    5250 2500
	0    -1   1    0   
$EndComp
$Comp
L R R14
U 1 1 5BACB3CF
P 5500 1650
F 0 "R14" V 5580 1650 50  0000 C CNN
F 1 "10K" V 5500 1650 50  0000 C CNN
F 2 "Resistors_THT:R_Axial_DIN0309_L9.0mm_D3.2mm_P12.70mm_Horizontal" V 5430 1650 50  0001 C CNN
F 3 "" H 5500 1650 50  0001 C CNN
	1    5500 1650
	1    0    0    -1  
$EndComp
$Comp
L R R16
U 1 1 5BACB48B
P 5500 2750
F 0 "R16" V 5580 2750 50  0000 C CNN
F 1 "10K" V 5500 2750 50  0000 C CNN
F 2 "Resistors_THT:R_Axial_DIN0309_L9.0mm_D3.2mm_P12.70mm_Horizontal" V 5430 2750 50  0001 C CNN
F 3 "" H 5500 2750 50  0001 C CNN
	1    5500 2750
	1    0    0    -1  
$EndComp
$Comp
L GND #PWR02
U 1 1 5BACB521
P 5500 3000
F 0 "#PWR02" H 5500 2750 50  0001 C CNN
F 1 "GND" H 5500 2850 50  0000 C CNN
F 2 "" H 5500 3000 50  0001 C CNN
F 3 "" H 5500 3000 50  0001 C CNN
	1    5500 3000
	-1   0    0    -1  
$EndComp
$Comp
L GND #PWR03
U 1 1 5BACB57A
P 5900 3000
F 0 "#PWR03" H 5900 2750 50  0001 C CNN
F 1 "GND" H 5900 2850 50  0000 C CNN
F 2 "" H 5900 3000 50  0001 C CNN
F 3 "" H 5900 3000 50  0001 C CNN
	1    5900 3000
	-1   0    0    -1  
$EndComp
$Comp
L R R4
U 1 1 5BACBA1B
P 2500 3750
F 0 "R4" V 2580 3750 50  0000 C CNN
F 1 "10K" V 2500 3750 50  0000 C CNN
F 2 "Resistors_THT:R_Axial_DIN0309_L9.0mm_D3.2mm_P12.70mm_Horizontal" V 2430 3750 50  0001 C CNN
F 3 "" H 2500 3750 50  0001 C CNN
	1    2500 3750
	1    0    0    -1  
$EndComp
$Comp
L R R5
U 1 1 5BACBA91
P 2500 4250
F 0 "R5" V 2580 4250 50  0000 C CNN
F 1 "10K" V 2500 4250 50  0000 C CNN
F 2 "Resistors_THT:R_Axial_DIN0309_L9.0mm_D3.2mm_P12.70mm_Horizontal" V 2430 4250 50  0001 C CNN
F 3 "" H 2500 4250 50  0001 C CNN
	1    2500 4250
	1    0    0    -1  
$EndComp
$Comp
L R R6
U 1 1 5BACBBF3
P 2750 4000
F 0 "R6" V 2830 4000 50  0000 C CNN
F 1 "1K" V 2750 4000 50  0000 C CNN
F 2 "Resistors_THT:R_Axial_DIN0309_L9.0mm_D3.2mm_P12.70mm_Horizontal" V 2680 4000 50  0001 C CNN
F 3 "" H 2750 4000 50  0001 C CNN
	1    2750 4000
	0    1    1    0   
$EndComp
$Comp
L C C4
U 1 1 5BACBDCA
P 3000 4250
F 0 "C4" H 3025 4350 50  0000 L CNN
F 1 "0.1uF" H 3025 4150 50  0000 L CNN
F 2 "Capacitors_THT:C_Disc_D4.7mm_W2.5mm_P5.00mm" H 3038 4100 50  0001 C CNN
F 3 "" H 3000 4250 50  0001 C CNN
	1    3000 4250
	1    0    0    -1  
$EndComp
$Comp
L GND #PWR04
U 1 1 5BACBE38
P 2500 4500
F 0 "#PWR04" H 2500 4250 50  0001 C CNN
F 1 "GND" H 2500 4350 50  0000 C CNN
F 2 "" H 2500 4500 50  0001 C CNN
F 3 "" H 2500 4500 50  0001 C CNN
	1    2500 4500
	1    0    0    -1  
$EndComp
$Comp
L GND #PWR05
U 1 1 5BACBE87
P 3000 4500
F 0 "#PWR05" H 3000 4250 50  0001 C CNN
F 1 "GND" H 3000 4350 50  0000 C CNN
F 2 "" H 3000 4500 50  0001 C CNN
F 3 "" H 3000 4500 50  0001 C CNN
	1    3000 4500
	1    0    0    -1  
$EndComp
$Comp
L C C1
U 1 1 5BACCF32
P 3000 1650
F 0 "C1" H 3025 1750 50  0000 L CNN
F 1 "0.1uF" H 3025 1550 50  0000 L CNN
F 2 "Capacitors_THT:C_Disc_D4.7mm_W2.5mm_P5.00mm" H 3038 1500 50  0001 C CNN
F 3 "" H 3000 1650 50  0001 C CNN
	1    3000 1650
	1    0    0    -1  
$EndComp
$Comp
L R R1
U 1 1 5BACCF38
P 2500 1650
F 0 "R1" V 2580 1650 50  0000 C CNN
F 1 "10K" V 2500 1650 50  0000 C CNN
F 2 "Resistors_THT:R_Axial_DIN0309_L9.0mm_D3.2mm_P12.70mm_Horizontal" V 2430 1650 50  0001 C CNN
F 3 "" H 2500 1650 50  0001 C CNN
	1    2500 1650
	1    0    0    -1  
$EndComp
$Comp
L R R2
U 1 1 5BACCF3E
P 2500 2150
F 0 "R2" V 2580 2150 50  0000 C CNN
F 1 "10K" V 2500 2150 50  0000 C CNN
F 2 "Resistors_THT:R_Axial_DIN0309_L9.0mm_D3.2mm_P12.70mm_Horizontal" V 2430 2150 50  0001 C CNN
F 3 "" H 2500 2150 50  0001 C CNN
	1    2500 2150
	1    0    0    -1  
$EndComp
$Comp
L R R3
U 1 1 5BACCF44
P 2750 1900
F 0 "R3" V 2830 1900 50  0000 C CNN
F 1 "1K" V 2750 1900 50  0000 C CNN
F 2 "Resistors_THT:R_Axial_DIN0309_L9.0mm_D3.2mm_P12.70mm_Horizontal" V 2680 1900 50  0001 C CNN
F 3 "" H 2750 1900 50  0001 C CNN
	1    2750 1900
	0    1    1    0   
$EndComp
$Comp
L C C2
U 1 1 5BACCF4A
P 3000 2150
F 0 "C2" H 3025 2250 50  0000 L CNN
F 1 "0.1uF" H 3025 2050 50  0000 L CNN
F 2 "Capacitors_THT:C_Disc_D4.7mm_W2.5mm_P5.00mm" H 3038 2000 50  0001 C CNN
F 3 "" H 3000 2150 50  0001 C CNN
	1    3000 2150
	1    0    0    -1  
$EndComp
$Comp
L GND #PWR06
U 1 1 5BACCF50
P 2500 2400
F 0 "#PWR06" H 2500 2150 50  0001 C CNN
F 1 "GND" H 2500 2250 50  0000 C CNN
F 2 "" H 2500 2400 50  0001 C CNN
F 3 "" H 2500 2400 50  0001 C CNN
	1    2500 2400
	1    0    0    -1  
$EndComp
$Comp
L GND #PWR07
U 1 1 5BACCF56
P 3000 2400
F 0 "#PWR07" H 3000 2150 50  0001 C CNN
F 1 "GND" H 3000 2250 50  0000 C CNN
F 2 "" H 3000 2400 50  0001 C CNN
F 3 "" H 3000 2400 50  0001 C CNN
	1    3000 2400
	1    0    0    -1  
$EndComp
$Comp
L Q_NMOS_DGS Q4
U 1 1 5BACD8DB
P 5800 4600
F 0 "Q4" H 6000 4650 50  0000 L CNN
F 1 "Q_NMOS_DGS" H 6000 4550 50  0000 L CNN
F 2 "" H 6000 4700 50  0001 C CNN
F 3 "" H 5800 4600 50  0001 C CNN
	1    5800 4600
	1    0    0    -1  
$EndComp
$Comp
L R R17
U 1 1 5BACD8E7
P 5250 4000
F 0 "R17" V 5330 4000 50  0000 C CNN
F 1 "1K" V 5250 4000 50  0000 C CNN
F 2 "Resistors_THT:R_Axial_DIN0309_L9.0mm_D3.2mm_P12.70mm_Horizontal" V 5180 4000 50  0001 C CNN
F 3 "" H 5250 4000 50  0001 C CNN
	1    5250 4000
	0    -1   1    0   
$EndComp
$Comp
L R R19
U 1 1 5BACD8ED
P 5250 4600
F 0 "R19" V 5330 4600 50  0000 C CNN
F 1 "1K" V 5250 4600 50  0000 C CNN
F 2 "Resistors_THT:R_Axial_DIN0309_L9.0mm_D3.2mm_P12.70mm_Horizontal" V 5180 4600 50  0001 C CNN
F 3 "" H 5250 4600 50  0001 C CNN
	1    5250 4600
	0    -1   1    0   
$EndComp
$Comp
L R R18
U 1 1 5BACD8F3
P 5500 3750
F 0 "R18" V 5580 3750 50  0000 C CNN
F 1 "10K" V 5500 3750 50  0000 C CNN
F 2 "Resistors_THT:R_Axial_DIN0309_L9.0mm_D3.2mm_P12.70mm_Horizontal" V 5430 3750 50  0001 C CNN
F 3 "" H 5500 3750 50  0001 C CNN
	1    5500 3750
	1    0    0    -1  
$EndComp
$Comp
L R R20
U 1 1 5BACD8F9
P 5500 4850
F 0 "R20" V 5580 4850 50  0000 C CNN
F 1 "10K" V 5500 4850 50  0000 C CNN
F 2 "Resistors_THT:R_Axial_DIN0309_L9.0mm_D3.2mm_P12.70mm_Horizontal" V 5430 4850 50  0001 C CNN
F 3 "" H 5500 4850 50  0001 C CNN
	1    5500 4850
	1    0    0    -1  
$EndComp
$Comp
L GND #PWR08
U 1 1 5BACD8FF
P 5500 5100
F 0 "#PWR08" H 5500 4850 50  0001 C CNN
F 1 "GND" H 5500 4950 50  0000 C CNN
F 2 "" H 5500 5100 50  0001 C CNN
F 3 "" H 5500 5100 50  0001 C CNN
	1    5500 5100
	-1   0    0    -1  
$EndComp
$Comp
L GND #PWR09
U 1 1 5BACD905
P 5900 5100
F 0 "#PWR09" H 5900 4850 50  0001 C CNN
F 1 "GND" H 5900 4950 50  0000 C CNN
F 2 "" H 5900 5100 50  0001 C CNN
F 3 "" H 5900 5100 50  0001 C CNN
	1    5900 5100
	-1   0    0    -1  
$EndComp
$Comp
L R R8
U 1 1 5BACE2ED
P 2150 7000
F 0 "R8" V 2230 7000 50  0000 C CNN
F 1 "1K" V 2150 7000 50  0000 C CNN
F 2 "Resistors_THT:R_Axial_DIN0309_L9.0mm_D3.2mm_P12.70mm_Horizontal" V 2080 7000 50  0001 C CNN
F 3 "" H 2150 7000 50  0001 C CNN
	1    2150 7000
	0    1    1    0   
$EndComp
$Comp
L R R7
U 1 1 5BACE5F7
P 1900 7250
F 0 "R7" V 1980 7250 50  0000 C CNN
F 1 "10K" V 1900 7250 50  0000 C CNN
F 2 "Resistors_THT:R_Axial_DIN0309_L9.0mm_D3.2mm_P12.70mm_Horizontal" V 1830 7250 50  0001 C CNN
F 3 "" H 1900 7250 50  0001 C CNN
	1    1900 7250
	1    0    0    -1  
$EndComp
$Comp
L C C5
U 1 1 5BACEA8B
P 2400 6750
F 0 "C5" H 2425 6850 50  0000 L CNN
F 1 "0.1uF" H 2425 6650 50  0000 L CNN
F 2 "Capacitors_THT:C_Disc_D4.7mm_W2.5mm_P5.00mm" H 2438 6600 50  0001 C CNN
F 3 "" H 2400 6750 50  0001 C CNN
	1    2400 6750
	1    0    0    -1  
$EndComp
$Comp
L GND #PWR010
U 1 1 5BACF64F
P 1900 7500
F 0 "#PWR010" H 1900 7250 50  0001 C CNN
F 1 "GND" H 1900 7350 50  0000 C CNN
F 2 "" H 1900 7500 50  0001 C CNN
F 3 "" H 1900 7500 50  0001 C CNN
	1    1900 7500
	-1   0    0    -1  
$EndComp
$Comp
L R R10
U 1 1 5BACFA38
P 2450 7900
F 0 "R10" V 2530 7900 50  0000 C CNN
F 1 "1K" V 2450 7900 50  0000 C CNN
F 2 "Resistors_THT:R_Axial_DIN0309_L9.0mm_D3.2mm_P12.70mm_Horizontal" V 2380 7900 50  0001 C CNN
F 3 "" H 2450 7900 50  0001 C CNN
	1    2450 7900
	0    1    1    0   
$EndComp
$Comp
L R R9
U 1 1 5BACFA3E
P 2200 8150
F 0 "R9" V 2280 8150 50  0000 C CNN
F 1 "10K" V 2200 8150 50  0000 C CNN
F 2 "Resistors_THT:R_Axial_DIN0309_L9.0mm_D3.2mm_P12.70mm_Horizontal" V 2130 8150 50  0001 C CNN
F 3 "" H 2200 8150 50  0001 C CNN
	1    2200 8150
	1    0    0    -1  
$EndComp
$Comp
L C C6
U 1 1 5BACFA44
P 2700 7650
F 0 "C6" H 2725 7750 50  0000 L CNN
F 1 "0.1uF" H 2725 7550 50  0000 L CNN
F 2 "Capacitors_THT:C_Disc_D4.7mm_W2.5mm_P5.00mm" H 2738 7500 50  0001 C CNN
F 3 "" H 2700 7650 50  0001 C CNN
	1    2700 7650
	1    0    0    -1  
$EndComp
$Comp
L GND #PWR011
U 1 1 5BACFA4A
P 2200 8400
F 0 "#PWR011" H 2200 8150 50  0001 C CNN
F 1 "GND" H 2200 8250 50  0000 C CNN
F 2 "" H 2200 8400 50  0001 C CNN
F 3 "" H 2200 8400 50  0001 C CNN
	1    2200 8400
	-1   0    0    -1  
$EndComp
$Comp
L R R12
U 1 1 5BAD06DB
P 3250 8800
F 0 "R12" V 3330 8800 50  0000 C CNN
F 1 "1K" V 3250 8800 50  0000 C CNN
F 2 "Resistors_THT:R_Axial_DIN0309_L9.0mm_D3.2mm_P12.70mm_Horizontal" V 3180 8800 50  0001 C CNN
F 3 "" H 3250 8800 50  0001 C CNN
	1    3250 8800
	0    1    1    0   
$EndComp
$Comp
L R R11
U 1 1 5BAD06E1
P 3000 8550
F 0 "R11" V 3080 8550 50  0000 C CNN
F 1 "10K" V 3000 8550 50  0000 C CNN
F 2 "Resistors_THT:R_Axial_DIN0309_L9.0mm_D3.2mm_P12.70mm_Horizontal" V 2930 8550 50  0001 C CNN
F 3 "" H 3000 8550 50  0001 C CNN
	1    3000 8550
	1    0    0    -1  
$EndComp
$Comp
L C C7
U 1 1 5BAD06E7
P 3500 9050
F 0 "C7" H 3525 9150 50  0000 L CNN
F 1 "0.1uF" H 3525 8950 50  0000 L CNN
F 2 "Capacitors_THT:C_Disc_D4.7mm_W2.5mm_P5.00mm" H 3538 8900 50  0001 C CNN
F 3 "" H 3500 9050 50  0001 C CNN
	1    3500 9050
	1    0    0    -1  
$EndComp
$Comp
L GND #PWR012
U 1 1 5BAD06ED
P 3500 9300
F 0 "#PWR012" H 3500 9050 50  0001 C CNN
F 1 "GND" H 3500 9150 50  0000 C CNN
F 2 "" H 3500 9300 50  0001 C CNN
F 3 "" H 3500 9300 50  0001 C CNN
	1    3500 9300
	-1   0    0    -1  
$EndComp
$Comp
L R R22
U 1 1 5BAD100C
P 5500 6050
F 0 "R22" V 5580 6050 50  0000 C CNN
F 1 "10K" V 5500 6050 50  0000 C CNN
F 2 "Resistors_THT:R_Axial_DIN0309_L9.0mm_D3.2mm_P12.70mm_Horizontal" V 5430 6050 50  0001 C CNN
F 3 "" H 5500 6050 50  0001 C CNN
	1    5500 6050
	1    0    0    -1  
$EndComp
$Comp
L R R21
U 1 1 5BAD1102
P 5250 5800
F 0 "R21" V 5330 5800 50  0000 C CNN
F 1 "1K" V 5250 5800 50  0000 C CNN
F 2 "Resistors_THT:R_Axial_DIN0309_L9.0mm_D3.2mm_P12.70mm_Horizontal" V 5180 5800 50  0001 C CNN
F 3 "" H 5250 5800 50  0001 C CNN
	1    5250 5800
	0    -1   1    0   
$EndComp
$Comp
L GND #PWR013
U 1 1 5BAD1731
P 4400 7600
F 0 "#PWR013" H 4400 7350 50  0001 C CNN
F 1 "GND" H 4400 7450 50  0000 C CNN
F 2 "" H 4400 7600 50  0001 C CNN
F 3 "" H 4400 7600 50  0001 C CNN
	1    4400 7600
	1    0    0    -1  
$EndComp
$Comp
L Conn_02x06_Counter_Clockwise J1
U 1 1 5BADC721
P 4100 800
F 0 "J1" H 4150 1100 50  0000 C CNN
F 1 "Conn_02x06_Counter_Clockwise" H 4150 400 50  0000 C CNN
F 2 "" H 4100 800 50  0001 C CNN
F 3 "" H 4100 800 50  0001 C CNN
	1    4100 800 
	1    0    0    -1  
$EndComp
Text Notes 2300 1100 0    60   ~ 0
Mirror2_IN
Text Notes 2200 1000 0    60   ~ 0
Mirror1_IN
Text Notes 1500 700  0    60   ~ 0
Block-_IN
Text Notes 1700 800  0    60   ~ 0
Block+_IN
Text Notes 1900 900  0    60   ~ 0
Reverse+_IN
Text Notes 7000 800  2    60   ~ 0
VIN_6-16V
Text Notes 6600 1100 2    60   ~ 0
Mirror2_OUT\n
Text Notes 6700 1000 2    60   ~ 0
Mirror1_OUT
Text Notes 6800 900  2    60   ~ 0
MagneticSwitch_OUT
Text Notes 7200 700  2    60   ~ 0
GND
NoConn ~ 4500 5200
NoConn ~ 4200 7400
NoConn ~ 4100 7400
NoConn ~ 3900 7400
NoConn ~ 3700 7400
NoConn ~ 4400 600 
NoConn ~ 3900 600 
NoConn ~ 3100 5850
NoConn ~ 3100 6000
NoConn ~ 3100 6150
$Comp
L D D2
U 1 1 5BDC4547
P 4900 6950
F 0 "D2" H 4900 7050 50  0000 C CNN
F 1 "D" H 4900 6850 50  0000 C CNN
F 2 "Diodes_THT:D_DO-35_SOD27_P7.62mm_Horizontal" H 4900 6950 50  0001 C CNN
F 3 "" H 4900 6950 50  0001 C CNN
	1    4900 6950
	0    1    -1   0   
$EndComp
$Comp
L Q_PMOS_SGD Q1
U 1 1 5C851293
P 5800 1900
F 0 "Q1" H 6000 1950 50  0000 L CNN
F 1 "Q_PMOS_SGD" H 6000 1850 50  0000 L CNN
F 2 "" H 6000 2000 50  0001 C CNN
F 3 "" H 5800 1900 50  0001 C CNN
	1    5800 1900
	1    0    0    1   
$EndComp
$Comp
L Q_PMOS_SGD Q3
U 1 1 5C85136C
P 5800 4000
F 0 "Q3" H 6000 4050 50  0000 L CNN
F 1 "Q_PMOS_SGD" H 6000 3950 50  0000 L CNN
F 2 "" H 6000 4100 50  0001 C CNN
F 3 "" H 5800 4000 50  0001 C CNN
	1    5800 4000
	1    0    0    1   
$EndComp
$Comp
L Q_PMOS_SGD Q5
U 1 1 5C851475
P 5800 5800
F 0 "Q5" H 6000 5850 50  0000 L CNN
F 1 "Q_PMOS_SGD" H 6000 5750 50  0000 L CNN
F 2 "" H 6000 5900 50  0001 C CNN
F 3 "" H 5800 5800 50  0001 C CNN
	1    5800 5800
	1    0    0    -1  
$EndComp
Wire Wire Line
	2500 1800 2500 2000
Connection ~ 2500 1900
Connection ~ 3000 1900
Connection ~ 5500 1900
Connection ~ 5500 2500
Connection ~ 5500 4000
Connection ~ 5500 4600
Connection ~ 3000 4000
Connection ~ 2500 4000
Connection ~ 3000 3500
Connection ~ 3000 1400
Wire Wire Line
	3000 1500 3000 1400
Wire Wire Line
	2500 1400 3700 1400
Wire Wire Line
	2500 1400 2500 1500
Wire Wire Line
	3000 1800 3000 2000
Wire Wire Line
	2900 1900 3900 1900
Wire Wire Line
	2300 1900 2600 1900
Wire Wire Line
	3000 2400 3000 2300
Wire Wire Line
	5500 1400 5500 1500
Wire Wire Line
	5500 1900 5500 1800
Wire Wire Line
	5400 2500 5600 2500
Wire Wire Line
	5500 2500 5500 2600
Wire Wire Line
	5900 2700 5900 3000
Wire Wire Line
	2500 3500 3700 3500
Wire Wire Line
	2500 3500 2500 3600
Wire Wire Line
	2500 3900 2500 4100
Wire Wire Line
	2500 4400 2500 4500
Wire Wire Line
	2200 4000 2600 4000
Wire Wire Line
	3000 3900 3000 4100
Wire Wire Line
	2900 4000 3800 4000
Wire Wire Line
	3000 4400 3000 4500
Wire Wire Line
	3000 3500 3000 3600
Wire Wire Line
	5500 3600 5500 3500
Wire Wire Line
	5500 3500 7000 3500
Wire Wire Line
	5500 4000 5500 3900
Wire Wire Line
	5500 5100 5500 5000
Wire Wire Line
	5500 4700 5500 4600
Wire Wire Line
	5400 4600 5600 4600
Connection ~ 2400 7000
Connection ~ 1900 7000
Connection ~ 2200 7900
Connection ~ 2700 7900
Connection ~ 3000 8800
Connection ~ 5500 5800
Wire Wire Line
	1900 7500 1900 7400
Wire Wire Line
	1900 900  1900 7100
Wire Wire Line
	1900 7000 2000 7000
Wire Wire Line
	2300 7000 3800 7000
Wire Wire Line
	2400 7000 2400 6900
Wire Wire Line
	2200 8400 2200 8300
Wire Wire Line
	2200 8000 2200 7900
Wire Wire Line
	1700 7900 2300 7900
Wire Wire Line
	2600 7900 4000 7900
Wire Wire Line
	2700 7900 2700 7800
Wire Wire Line
	3000 8700 3000 8800
Wire Wire Line
	1500 8800 3100 8800
Wire Wire Line
	3400 8800 4300 8800
Wire Wire Line
	3500 8800 3500 8900
Wire Wire Line
	3500 9200 3500 9300
Wire Wire Line
	3700 5200 3700 5100
Wire Wire Line
	3700 1400 3700 4800
Connection ~ 3700 3500
Wire Wire Line
	5500 1400 7000 1400
Wire Wire Line
	3900 1100 2300 1100
Wire Wire Line
	2300 1100 2300 1900
Wire Wire Line
	3900 1000 2200 1000
Wire Wire Line
	2200 1000 2200 4000
Wire Wire Line
	4400 1000 6700 1000
Wire Wire Line
	6700 1000 6700 4300
Wire Wire Line
	6700 4300 5900 4300
Connection ~ 5900 4300
Wire Wire Line
	4400 1100 6600 1100
Wire Wire Line
	6600 1100 6600 2200
Wire Wire Line
	6600 2200 5900 2200
Connection ~ 5900 2200
Wire Wire Line
	3800 4000 3800 5200
Wire Wire Line
	3900 1900 3900 5200
Wire Wire Line
	5900 4800 5900 5100
Wire Wire Line
	1900 900  3900 900 
Wire Wire Line
	1700 7900 1700 800 
Wire Wire Line
	1700 800  3900 800 
Wire Wire Line
	5500 5800 5500 5900
Wire Wire Line
	4400 7400 4400 7600
Wire Wire Line
	3800 7000 3800 7400
Wire Wire Line
	4000 7900 4000 7400
Wire Wire Line
	1500 8800 1500 700 
Wire Wire Line
	1500 700  3900 700 
Wire Wire Line
	5100 1900 4000 1900
Wire Wire Line
	4000 1900 4000 5200
Wire Wire Line
	5100 2500 4100 2500
Wire Wire Line
	4100 2500 4100 5200
Wire Wire Line
	5100 4000 4200 4000
Wire Wire Line
	4200 4000 4200 5200
Wire Wire Line
	5100 4600 4300 4600
Wire Wire Line
	4300 4600 4300 5200
Wire Wire Line
	4300 8800 4300 7400
Connection ~ 3500 8800
Wire Wire Line
	4400 5200 4400 5000
Wire Wire Line
	4400 5000 5100 5000
Wire Wire Line
	5100 5000 5100 5800
Connection ~ 5900 6200
Wire Wire Line
	6800 5600 6800 900 
Wire Wire Line
	6800 900  4400 900 
Wire Wire Line
	4400 700  7200 700 
Wire Wire Line
	7200 700  7200 800 
Connection ~ 5900 1400
Connection ~ 7000 3500
Connection ~ 5900 3500
Wire Wire Line
	5900 6600 2400 6600
Wire Wire Line
	2700 6600 2700 7500
Connection ~ 2700 6600
Wire Wire Line
	3000 8400 3000 7400
Wire Wire Line
	3000 7400 2700 7400
Connection ~ 2700 7400
Wire Wire Line
	2500 2300 2500 2400
Wire Wire Line
	5500 2900 5500 3000
Connection ~ 7000 1400
Wire Wire Line
	4400 800  7000 800 
Wire Wire Line
	7000 800  7000 6200
Wire Wire Line
	7000 6200 5500 6200
Wire Wire Line
	4900 6600 4900 6800
Connection ~ 4900 6600
Wire Wire Line
	4900 7100 4900 7400
Wire Wire Line
	4900 7400 4500 7400
Wire Wire Line
	5900 6000 5900 6600
Wire Wire Line
	5400 5800 5600 5800
Wire Wire Line
	5900 5600 6800 5600
Wire Wire Line
	5900 3500 5900 3800
Wire Wire Line
	5400 4000 5600 4000
Wire Wire Line
	5900 4200 5900 4400
Wire Wire Line
	5400 1900 5600 1900
Wire Wire Line
	5900 2100 5900 2300
Wire Wire Line
	5900 1400 5900 1700
$EndSCHEMATC
