<?xml version="1.0" encoding="utf-8"?>
<!DOCTYPE eagle SYSTEM "eagle.dtd">
<eagle version="9.4.1">
<drawing>
<settings>
<setting alwaysvectorfont="no"/>
<setting verticaltext="up"/>
</settings>
<grid distance="25" unitdist="mil" unit="mil" style="lines" multiple="1" display="yes" altdistance="5" altunitdist="mil" altunit="mil"/>
<layers>
<layer number="1" name="Top" color="4" fill="1" visible="yes" active="yes"/>
<layer number="16" name="Bottom" color="1" fill="1" visible="yes" active="yes"/>
<layer number="17" name="Pads" color="2" fill="1" visible="yes" active="yes"/>
<layer number="18" name="Vias" color="2" fill="1" visible="yes" active="yes"/>
<layer number="19" name="Unrouted" color="6" fill="1" visible="yes" active="yes"/>
<layer number="20" name="Dimension" color="24" fill="1" visible="yes" active="yes"/>
<layer number="21" name="tPlace" color="7" fill="1" visible="yes" active="yes"/>
<layer number="22" name="bPlace" color="7" fill="1" visible="yes" active="yes"/>
<layer number="23" name="tOrigins" color="15" fill="1" visible="yes" active="yes"/>
<layer number="24" name="bOrigins" color="15" fill="1" visible="yes" active="yes"/>
<layer number="25" name="tNames" color="7" fill="1" visible="yes" active="yes"/>
<layer number="26" name="bNames" color="7" fill="1" visible="yes" active="yes"/>
<layer number="27" name="tValues" color="7" fill="1" visible="no" active="yes"/>
<layer number="28" name="bValues" color="7" fill="1" visible="no" active="yes"/>
<layer number="29" name="tStop" color="7" fill="3" visible="no" active="yes"/>
<layer number="30" name="bStop" color="7" fill="6" visible="no" active="yes"/>
<layer number="31" name="tCream" color="7" fill="4" visible="no" active="yes"/>
<layer number="32" name="bCream" color="7" fill="5" visible="no" active="yes"/>
<layer number="33" name="tFinish" color="6" fill="3" visible="no" active="yes"/>
<layer number="34" name="bFinish" color="6" fill="6" visible="no" active="yes"/>
<layer number="35" name="tGlue" color="7" fill="4" visible="no" active="yes"/>
<layer number="36" name="bGlue" color="7" fill="5" visible="no" active="yes"/>
<layer number="37" name="tTest" color="7" fill="1" visible="no" active="yes"/>
<layer number="38" name="bTest" color="7" fill="1" visible="no" active="yes"/>
<layer number="39" name="tKeepout" color="4" fill="11" visible="yes" active="yes"/>
<layer number="40" name="bKeepout" color="1" fill="11" visible="yes" active="yes"/>
<layer number="41" name="tRestrict" color="4" fill="10" visible="yes" active="yes"/>
<layer number="42" name="bRestrict" color="1" fill="10" visible="yes" active="yes"/>
<layer number="43" name="vRestrict" color="2" fill="10" visible="no" active="yes"/>
<layer number="44" name="Drills" color="7" fill="1" visible="no" active="yes"/>
<layer number="45" name="Holes" color="7" fill="1" visible="no" active="yes"/>
<layer number="46" name="Milling" color="3" fill="1" visible="no" active="yes"/>
<layer number="47" name="Measures" color="7" fill="1" visible="no" active="yes"/>
<layer number="48" name="Document" color="7" fill="1" visible="no" active="yes"/>
<layer number="49" name="Reference" color="7" fill="1" visible="no" active="yes"/>
<layer number="51" name="tDocu" color="7" fill="1" visible="yes" active="yes"/>
<layer number="52" name="bDocu" color="7" fill="1" visible="yes" active="yes"/>
<layer number="88" name="SimResults" color="9" fill="1" visible="no" active="no"/>
<layer number="89" name="SimProbes" color="9" fill="1" visible="no" active="no"/>
<layer number="90" name="Modules" color="5" fill="1" visible="no" active="no"/>
<layer number="91" name="Nets" color="2" fill="1" visible="no" active="no"/>
<layer number="92" name="Busses" color="1" fill="1" visible="no" active="no"/>
<layer number="93" name="Pins" color="2" fill="1" visible="no" active="no"/>
<layer number="94" name="Symbols" color="4" fill="1" visible="no" active="no"/>
<layer number="95" name="Names" color="7" fill="1" visible="no" active="no"/>
<layer number="96" name="Values" color="7" fill="1" visible="no" active="no"/>
<layer number="97" name="Info" color="7" fill="1" visible="no" active="no"/>
<layer number="98" name="Guide" color="6" fill="1" visible="no" active="no"/>
<layer number="99" name="SpiceOrder" color="5" fill="1" visible="no" active="no"/>
</layers>
<board>
<plain>
<wire x1="29.21" y1="10.16" x2="93.65" y2="10.16" width="0" layer="20"/>
<wire x1="93.65" y1="10.16" x2="93.65" y2="73.65" width="0" layer="20"/>
<wire x1="93.65" y1="73.65" x2="29.21" y2="73.65" width="0" layer="20"/>
<wire x1="29.21" y1="73.65" x2="29.21" y2="10.16" width="0" layer="20"/>
<wire x1="71.12" y1="54.61" x2="71.12" y2="35.56" width="2.032" layer="21"/>
<wire x1="73.66" y1="52.07" x2="73.66" y2="33.02" width="2.032" layer="21"/>
<wire x1="76.2" y1="40.64" x2="76.2" y2="30.48" width="2.032" layer="21"/>
<wire x1="78.74" y1="38.1" x2="78.74" y2="30.48" width="2.032" layer="21"/>
<wire x1="34.29" y1="45.72" x2="55.245" y2="45.72" width="1.016" layer="21"/>
<wire x1="42.545" y1="43.18" x2="45.72" y2="43.18" width="1.016" layer="21"/>
<wire x1="39.37" y1="33.02" x2="50.165" y2="33.02" width="1.016" layer="21"/>
<wire x1="43.18" y1="24.13" x2="55.88" y2="24.13" width="1.016" layer="21"/>
<wire x1="40.64" y1="20.32" x2="50.8" y2="20.32" width="1.016" layer="21"/>
<wire x1="67.945" y1="71.12" x2="67.945" y2="62.23" width="1.016" layer="21"/>
<text x="30.48" y="11.43" size="4.699" layer="16" font="vector" ratio="22" rot="MR0" align="bottom-right">ALMIR 1</text>
</plain>
<libraries>
<library name="capacitor-wima" urn="urn:adsk.eagle:library:116">
<description>&lt;b&gt;WIMA Capacitors&lt;/b&gt;&lt;p&gt;
&lt;author&gt;Created by librarian@cadsoft.de&lt;/author&gt;</description>
<packages>
<package name="C5B2.5" urn="urn:adsk.eagle:footprint:5379/1" library_version="1">
<description>&lt;B&gt;MKS2&lt;/B&gt;, 7.5 x 2.5 mm, grid 5.08 mm</description>
<wire x1="-0.3048" y1="0.635" x2="-0.3048" y2="0" width="0.3048" layer="21"/>
<wire x1="-0.3048" y1="0" x2="-0.3048" y2="-0.635" width="0.3048" layer="21"/>
<wire x1="-0.3048" y1="0" x2="-1.524" y2="0" width="0.1524" layer="21"/>
<wire x1="0.3302" y1="0.635" x2="0.3302" y2="0" width="0.3048" layer="21"/>
<wire x1="0.3302" y1="0" x2="0.3302" y2="-0.635" width="0.3048" layer="21"/>
<wire x1="0.3302" y1="0" x2="1.524" y2="0" width="0.1524" layer="21"/>
<wire x1="-3.683" y1="1.016" x2="-3.683" y2="-1.016" width="0.1524" layer="21"/>
<wire x1="-3.429" y1="-1.27" x2="3.429" y2="-1.27" width="0.1524" layer="21"/>
<wire x1="3.683" y1="-1.016" x2="3.683" y2="1.016" width="0.1524" layer="21"/>
<wire x1="3.429" y1="1.27" x2="-3.429" y2="1.27" width="0.1524" layer="21"/>
<wire x1="3.429" y1="1.27" x2="3.683" y2="1.016" width="0.1524" layer="21" curve="-90"/>
<wire x1="3.429" y1="-1.27" x2="3.683" y2="-1.016" width="0.1524" layer="21" curve="90"/>
<wire x1="-3.683" y1="-1.016" x2="-3.429" y2="-1.27" width="0.1524" layer="21" curve="90"/>
<wire x1="-3.683" y1="1.016" x2="-3.429" y2="1.27" width="0.1524" layer="21" curve="-90"/>
<pad name="1" x="-2.54" y="0" drill="0.8128" diameter="1.6002" shape="octagon"/>
<pad name="2" x="2.54" y="0" drill="0.8128" diameter="1.6002" shape="octagon"/>
<text x="-2.032" y="1.524" size="1.27" layer="25" ratio="10">&gt;NAME</text>
<text x="-2.032" y="-2.794" size="1.27" layer="27" ratio="10">&gt;VALUE</text>
</package>
</packages>
<packages3d>
<package3d name="C5B2.5" urn="urn:adsk.eagle:package:5426/1" type="box" library_version="1">
<description>MKS2, 7.5 x 2.5 mm, grid 5.08 mm</description>
<packageinstances>
<packageinstance name="C5B2.5"/>
</packageinstances>
</package3d>
</packages3d>
</library>
<library name="diode" urn="urn:adsk.eagle:library:210">
<description>&lt;b&gt;Diodes&lt;/b&gt;&lt;p&gt;
Based on the following sources:
&lt;ul&gt;
&lt;li&gt;Motorola : www.onsemi.com
&lt;li&gt;Fairchild : www.fairchildsemi.com
&lt;li&gt;Philips : www.semiconductors.com
&lt;li&gt;Vishay : www.vishay.de
&lt;/ul&gt;
&lt;author&gt;Created by librarian@cadsoft.de&lt;/author&gt;</description>
<packages>
<package name="DO35-10" urn="urn:adsk.eagle:footprint:43092/1" library_version="4">
<description>&lt;B&gt;DIODE&lt;/B&gt;&lt;p&gt;
diameter 2 mm, horizontal, grid 10.16 mm</description>
<wire x1="5.08" y1="0" x2="4.191" y2="0" width="0.508" layer="51"/>
<wire x1="-5.08" y1="0" x2="-4.191" y2="0" width="0.508" layer="51"/>
<wire x1="-0.635" y1="0" x2="0" y2="0" width="0.1524" layer="21"/>
<wire x1="1.016" y1="0.635" x2="1.016" y2="-0.635" width="0.1524" layer="21"/>
<wire x1="1.016" y1="-0.635" x2="0" y2="0" width="0.1524" layer="21"/>
<wire x1="0" y1="0" x2="1.524" y2="0" width="0.1524" layer="21"/>
<wire x1="0" y1="0" x2="1.016" y2="0.635" width="0.1524" layer="21"/>
<wire x1="0" y1="0.635" x2="0" y2="0" width="0.1524" layer="21"/>
<wire x1="0" y1="0" x2="0" y2="-0.635" width="0.1524" layer="21"/>
<wire x1="2.032" y1="1.016" x2="2.286" y2="0.762" width="0.1524" layer="21" curve="-90"/>
<wire x1="-2.286" y1="0.762" x2="-2.032" y2="1.016" width="0.1524" layer="21" curve="-90"/>
<wire x1="-2.286" y1="-0.762" x2="-2.032" y2="-1.016" width="0.1524" layer="21" curve="90"/>
<wire x1="2.032" y1="-1.016" x2="2.286" y2="-0.762" width="0.1524" layer="21" curve="90"/>
<wire x1="2.286" y1="-0.762" x2="2.286" y2="0.762" width="0.1524" layer="21"/>
<wire x1="-2.286" y1="0.762" x2="-2.286" y2="-0.762" width="0.1524" layer="21"/>
<wire x1="-2.032" y1="1.016" x2="2.032" y2="1.016" width="0.1524" layer="21"/>
<wire x1="-2.032" y1="-1.016" x2="2.032" y2="-1.016" width="0.1524" layer="21"/>
<pad name="C" x="-5.08" y="0" drill="0.8128" shape="long"/>
<pad name="A" x="5.08" y="0" drill="0.8128" shape="long"/>
<text x="-2.159" y="1.27" size="1.27" layer="25" ratio="10">&gt;NAME</text>
<text x="-2.159" y="-2.667" size="1.27" layer="27" ratio="10">&gt;VALUE</text>
<rectangle x1="-1.905" y1="-1.016" x2="-1.397" y2="1.016" layer="21"/>
<rectangle x1="2.286" y1="-0.254" x2="4.191" y2="0.254" layer="21"/>
<rectangle x1="-4.191" y1="-0.254" x2="-2.286" y2="0.254" layer="21"/>
</package>
</packages>
<packages3d>
<package3d name="DO35-10" urn="urn:adsk.eagle:package:43344/2" type="model" library_version="4">
<description>DIODE
diameter 2 mm, horizontal, grid 10.16 mm</description>
<packageinstances>
<packageinstance name="DO35-10"/>
</packageinstances>
</package3d>
</packages3d>
</library>
<library name="transistor-power" urn="urn:adsk.eagle:library:400">
<description>&lt;b&gt;Power Transistors&lt;/b&gt;&lt;p&gt;
&lt;author&gt;Created by librarian@cadsoft.de&lt;/author&gt;</description>
<packages>
<package name="TO220BV" urn="urn:adsk.eagle:footprint:29371/1" library_version="3">
<description>&lt;b&gt;Molded Package&lt;/b&gt;&lt;p&gt;
grid 2.54 mm</description>
<wire x1="4.699" y1="-4.318" x2="4.953" y2="-4.064" width="0.1524" layer="21"/>
<wire x1="4.699" y1="-4.318" x2="-4.699" y2="-4.318" width="0.1524" layer="21"/>
<wire x1="-4.953" y1="-4.064" x2="-4.699" y2="-4.318" width="0.1524" layer="21"/>
<wire x1="5.08" y1="-1.143" x2="4.953" y2="-4.064" width="0.1524" layer="21"/>
<wire x1="-4.953" y1="-4.064" x2="-5.08" y2="-1.143" width="0.1524" layer="21"/>
<circle x="-4.4958" y="-3.7084" radius="0.254" width="0" layer="21"/>
<pad name="G" x="-2.54" y="-2.54" drill="1.016" shape="long" rot="R90"/>
<pad name="D" x="0" y="-2.54" drill="1.016" shape="long" rot="R90"/>
<pad name="S" x="2.54" y="-2.54" drill="1.016" shape="long" rot="R90"/>
<text x="-5.08" y="-6.0452" size="1.27" layer="25" ratio="10">&gt;NAME</text>
<text x="-5.08" y="-7.62" size="1.27" layer="27" ratio="10">&gt;VALUE</text>
<rectangle x1="-5.334" y1="-0.762" x2="5.334" y2="0" layer="21"/>
<rectangle x1="-5.334" y1="-1.27" x2="-3.429" y2="-0.762" layer="21"/>
<rectangle x1="-1.651" y1="-1.27" x2="-0.889" y2="-0.762" layer="21"/>
<rectangle x1="-3.429" y1="-1.27" x2="-1.651" y2="-0.762" layer="51"/>
<rectangle x1="0.889" y1="-1.27" x2="1.651" y2="-0.762" layer="21"/>
<rectangle x1="3.429" y1="-1.27" x2="5.334" y2="-0.762" layer="21"/>
<rectangle x1="-0.889" y1="-1.27" x2="0.889" y2="-0.762" layer="51"/>
<rectangle x1="1.651" y1="-1.27" x2="3.429" y2="-0.762" layer="51"/>
</package>
</packages>
<packages3d>
<package3d name="TO220BV" urn="urn:adsk.eagle:package:29484/3" type="model" library_version="3">
<description>Molded Package
grid 2.54 mm</description>
<packageinstances>
<packageinstance name="TO220BV"/>
</packageinstances>
</package3d>
</packages3d>
</library>
<library name="rcl" urn="urn:adsk.eagle:library:334">
<description>&lt;b&gt;Resistors, Capacitors, Inductors&lt;/b&gt;&lt;p&gt;
Based on the previous libraries:
&lt;ul&gt;
&lt;li&gt;r.lbr
&lt;li&gt;cap.lbr 
&lt;li&gt;cap-fe.lbr
&lt;li&gt;captant.lbr
&lt;li&gt;polcap.lbr
&lt;li&gt;ipc-smd.lbr
&lt;/ul&gt;
All SMD packages are defined according to the IPC specifications and  CECC&lt;p&gt;
&lt;author&gt;Created by librarian@cadsoft.de&lt;/author&gt;&lt;p&gt;
&lt;p&gt;
for Electrolyt Capacitors see also :&lt;p&gt;
www.bccomponents.com &lt;p&gt;
www.panasonic.com&lt;p&gt;
www.kemet.com&lt;p&gt;
http://www.secc.co.jp/pdf/os_e/2004/e_os_all.pdf &lt;b&gt;(SANYO)&lt;/b&gt;
&lt;p&gt;
for trimmer refence see : &lt;u&gt;www.electrospec-inc.com/cross_references/trimpotcrossref.asp&lt;/u&gt;&lt;p&gt;

&lt;table border=0 cellspacing=0 cellpadding=0 width="100%" cellpaddding=0&gt;
&lt;tr valign="top"&gt;

&lt;! &lt;td width="10"&gt;&amp;nbsp;&lt;/td&gt;
&lt;td width="90%"&gt;

&lt;b&gt;&lt;font color="#0000FF" size="4"&gt;TRIM-POT CROSS REFERENCE&lt;/font&gt;&lt;/b&gt;
&lt;P&gt;
&lt;TABLE BORDER=0 CELLSPACING=1 CELLPADDING=2&gt;
  &lt;TR&gt;
    &lt;TD COLSPAN=8&gt;
      &lt;FONT SIZE=3 FACE=ARIAL&gt;&lt;B&gt;RECTANGULAR MULTI-TURN&lt;/B&gt;&lt;/FONT&gt;
    &lt;/TD&gt;
  &lt;/TR&gt;
  &lt;TR&gt;
    &lt;TD ALIGN=CENTER&gt;
      &lt;B&gt;
      &lt;FONT SIZE=3 FACE=ARIAL color="#FF0000"&gt;BOURNS&lt;/FONT&gt;
      &lt;/B&gt;
    &lt;/TD&gt;
    &lt;TD ALIGN=CENTER&gt;
      &lt;B&gt;
      &lt;FONT SIZE=3 FACE=ARIAL color="#FF0000"&gt;BI&amp;nbsp;TECH&lt;/FONT&gt;
      &lt;/B&gt;
    &lt;/TD&gt;
    &lt;TD ALIGN=CENTER&gt;
      &lt;B&gt;
      &lt;FONT SIZE=3 FACE=ARIAL color="#FF0000"&gt;DALE-VISHAY&lt;/FONT&gt;
      &lt;/B&gt;
    &lt;/TD&gt;
    &lt;TD ALIGN=CENTER&gt;
      &lt;B&gt;
      &lt;FONT SIZE=3 FACE=ARIAL color="#FF0000"&gt;PHILIPS/MEPCO&lt;/FONT&gt;
      &lt;/B&gt;
    &lt;/TD&gt;
    &lt;TD ALIGN=CENTER&gt;
      &lt;B&gt;
      &lt;FONT SIZE=3 FACE=ARIAL color="#FF0000"&gt;MURATA&lt;/FONT&gt;
      &lt;/B&gt;
    &lt;/TD&gt;
    &lt;TD ALIGN=CENTER&gt;
      &lt;B&gt;
      &lt;FONT SIZE=3 FACE=ARIAL color="#FF0000"&gt;PANASONIC&lt;/FONT&gt;
      &lt;/B&gt;
    &lt;/TD&gt;
    &lt;TD ALIGN=CENTER&gt;
      &lt;B&gt;
      &lt;FONT SIZE=3 FACE=ARIAL color="#FF0000"&gt;SPECTROL&lt;/FONT&gt;
      &lt;/B&gt;
    &lt;/TD&gt;
    &lt;TD ALIGN=CENTER&gt;
      &lt;B&gt;
      &lt;FONT SIZE=3 FACE=ARIAL color="#FF0000"&gt;MILSPEC&lt;/FONT&gt;
      &lt;/B&gt;
    &lt;/TD&gt;&lt;TD&gt;&amp;nbsp;&lt;/TD&gt;
  &lt;/TR&gt;
  &lt;TR&gt;
    &lt;TD BGCOLOR="#cccccc" ALIGN=CENTER&gt;&lt;FONT FACE=ARIAL SIZE=3 &gt;
      3005P&lt;BR&gt;
      3006P&lt;BR&gt;
      3006W&lt;BR&gt;
      3006Y&lt;BR&gt;
      3009P&lt;BR&gt;
      3009W&lt;BR&gt;
      3009Y&lt;BR&gt;
      3057J&lt;BR&gt;
      3057L&lt;BR&gt;
      3057P&lt;BR&gt;
      3057Y&lt;BR&gt;
      3059J&lt;BR&gt;
      3059L&lt;BR&gt;
      3059P&lt;BR&gt;
      3059Y&lt;BR&gt;&lt;/FONT&gt;
    &lt;/TD&gt;
    &lt;TD BGCOLOR="#cccccc" ALIGN=CENTER&gt;&lt;FONT FACE=ARIAL SIZE=3&gt;
      -&lt;BR&gt;
      89P&lt;BR&gt;
      89W&lt;BR&gt;
      89X&lt;BR&gt;
      89PH&lt;BR&gt;
      76P&lt;BR&gt;
      89XH&lt;BR&gt;
      78SLT&lt;BR&gt;
      78L&amp;nbsp;ALT&lt;BR&gt;
      56P&amp;nbsp;ALT&lt;BR&gt;
      78P&amp;nbsp;ALT&lt;BR&gt;
      T8S&lt;BR&gt;
      78L&lt;BR&gt;
      56P&lt;BR&gt;
      78P&lt;BR&gt;&lt;/FONT&gt;
    &lt;/TD&gt;
    &lt;TD BGCOLOR="#cccccc" ALIGN=CENTER&gt;&lt;FONT FACE=ARIAL SIZE=3&gt;
      -&lt;BR&gt;
      T18/784&lt;BR&gt;
      783&lt;BR&gt;
      781&lt;BR&gt;
      -&lt;BR&gt;
      -&lt;BR&gt;
      -&lt;BR&gt;
      2199&lt;BR&gt;
      1697/1897&lt;BR&gt;
      1680/1880&lt;BR&gt;
      2187&lt;BR&gt;
      -&lt;BR&gt;
      -&lt;BR&gt;
      -&lt;BR&gt;
      -&lt;BR&gt;&lt;/FONT&gt;
    &lt;/TD&gt;
    &lt;TD BGCOLOR="#cccccc" ALIGN=CENTER&gt;&lt;FONT FACE=ARIAL SIZE=3&gt;
      -&lt;BR&gt;
      8035EKP/CT20/RJ-20P&lt;BR&gt;
      -&lt;BR&gt;
      RJ-20X&lt;BR&gt;
      -&lt;BR&gt;
      -&lt;BR&gt;
      -&lt;BR&gt;
      1211L&lt;BR&gt;
      8012EKQ&amp;nbsp;ALT&lt;BR&gt;
      8012EKR&amp;nbsp;ALT&lt;BR&gt;
      1211P&lt;BR&gt;
      8012EKJ&lt;BR&gt;
      8012EKL&lt;BR&gt;
      8012EKQ&lt;BR&gt;
      8012EKR&lt;BR&gt;&lt;/FONT&gt;
    &lt;/TD&gt;
    &lt;TD BGCOLOR="#cccccc" ALIGN=CENTER&gt;&lt;FONT FACE=ARIAL SIZE=3&gt;
      -&lt;BR&gt;
      2101P&lt;BR&gt;
      2101W&lt;BR&gt;
      2101Y&lt;BR&gt;
      -&lt;BR&gt;
      -&lt;BR&gt;
      -&lt;BR&gt;
      -&lt;BR&gt;
      -&lt;BR&gt;
      -&lt;BR&gt;
      -&lt;BR&gt;
      -&lt;BR&gt;
      2102L&lt;BR&gt;
      2102S&lt;BR&gt;
      2102Y&lt;BR&gt;&lt;/FONT&gt;
    &lt;/TD&gt;
    &lt;TD BGCOLOR="#cccccc" ALIGN=CENTER&gt;&lt;FONT FACE=ARIAL SIZE=3&gt;
      -&lt;BR&gt;
      EVMCOG&lt;BR&gt;
      -&lt;BR&gt;
      -&lt;BR&gt;
      -&lt;BR&gt;
      -&lt;BR&gt;
      -&lt;BR&gt;
      -&lt;BR&gt;
      -&lt;BR&gt;
      -&lt;BR&gt;
      -&lt;BR&gt;
      -&lt;BR&gt;
      -&lt;BR&gt;
      -&lt;BR&gt;
      -&lt;BR&gt;&lt;/FONT&gt;
    &lt;/TD&gt;
    &lt;TD BGCOLOR="#cccccc" ALIGN=CENTER&gt;&lt;FONT FACE=ARIAL SIZE=3&gt;
      -&lt;BR&gt;
      43P&lt;BR&gt;
      43W&lt;BR&gt;
      43Y&lt;BR&gt;
      -&lt;BR&gt;
      -&lt;BR&gt;
      -&lt;BR&gt;
      -&lt;BR&gt;
      40L&lt;BR&gt;
      40P&lt;BR&gt;
      40Y&lt;BR&gt;
      70Y-T602&lt;BR&gt;
      70L&lt;BR&gt;
      70P&lt;BR&gt;
      70Y&lt;BR&gt;&lt;/FONT&gt;
    &lt;/TD&gt;
    &lt;TD BGCOLOR="#cccccc" ALIGN=CENTER&gt;&lt;FONT FACE=ARIAL SIZE=3&gt;
      -&lt;BR&gt;
      -&lt;BR&gt;
      -&lt;BR&gt;
      -&lt;BR&gt;
      -&lt;BR&gt;
      -&lt;BR&gt;
      -&lt;BR&gt;
      -&lt;BR&gt;
      RT/RTR12&lt;BR&gt;
      RT/RTR12&lt;BR&gt;
      RT/RTR12&lt;BR&gt;
      -&lt;BR&gt;
      RJ/RJR12&lt;BR&gt;
      RJ/RJR12&lt;BR&gt;
      RJ/RJR12&lt;BR&gt;&lt;/FONT&gt;
    &lt;/TD&gt;
  &lt;/TR&gt;
  &lt;TR&gt;
    &lt;TD COLSPAN=8&gt;&amp;nbsp;
    &lt;/TD&gt;
  &lt;/TR&gt;
  &lt;TR&gt;
    &lt;TD COLSPAN=8&gt;
      &lt;FONT SIZE=4 FACE=ARIAL&gt;&lt;B&gt;SQUARE MULTI-TURN&lt;/B&gt;&lt;/FONT&gt;
    &lt;/TD&gt;
  &lt;/TR&gt;
  &lt;TR&gt;
   &lt;TD ALIGN=CENTER&gt;
      &lt;FONT SIZE=3 FACE=ARIAL&gt;&lt;B&gt;BOURN&lt;/B&gt;&lt;/FONT&gt;
    &lt;/TD&gt;
    &lt;TD ALIGN=CENTER&gt;
      &lt;FONT SIZE=3 FACE=ARIAL&gt;&lt;B&gt;BI&amp;nbsp;TECH&lt;/B&gt;&lt;/FONT&gt;
    &lt;/TD&gt;
    &lt;TD ALIGN=CENTER&gt;
      &lt;FONT SIZE=3 FACE=ARIAL&gt;&lt;B&gt;DALE-VISHAY&lt;/B&gt;&lt;/FONT&gt;
    &lt;/TD&gt;
    &lt;TD ALIGN=CENTER&gt;
      &lt;FONT SIZE=3 FACE=ARIAL&gt;&lt;B&gt;PHILIPS/MEPCO&lt;/B&gt;&lt;/FONT&gt;
    &lt;/TD&gt;
    &lt;TD ALIGN=CENTER&gt;
      &lt;FONT SIZE=3 FACE=ARIAL&gt;&lt;B&gt;MURATA&lt;/B&gt;&lt;/FONT&gt;
    &lt;/TD&gt;
    &lt;TD ALIGN=CENTER&gt;
      &lt;FONT SIZE=3 FACE=ARIAL&gt;&lt;B&gt;PANASONIC&lt;/B&gt;&lt;/FONT&gt;
    &lt;/TD&gt;
    &lt;TD ALIGN=CENTER&gt;
      &lt;FONT SIZE=3 FACE=ARIAL&gt;&lt;B&gt;SPECTROL&lt;/B&gt;&lt;/FONT&gt;
    &lt;/TD&gt;
    &lt;TD ALIGN=CENTER&gt;
      &lt;FONT SIZE=3 FACE=ARIAL&gt;&lt;B&gt;MILSPEC&lt;/B&gt;&lt;/FONT&gt;
    &lt;/TD&gt;
  &lt;/TR&gt;
  &lt;TR&gt;
    &lt;TD BGCOLOR="#cccccc" ALIGN=CENTER&gt;&lt;FONT FACE=ARIAL SIZE=3&gt;
      3250L&lt;BR&gt;
      3250P&lt;BR&gt;
      3250W&lt;BR&gt;
      3250X&lt;BR&gt;
      3252P&lt;BR&gt;
      3252W&lt;BR&gt;
      3252X&lt;BR&gt;
      3260P&lt;BR&gt;
      3260W&lt;BR&gt;
      3260X&lt;BR&gt;
      3262P&lt;BR&gt;
      3262W&lt;BR&gt;
      3262X&lt;BR&gt;
      3266P&lt;BR&gt;
      3266W&lt;BR&gt;
      3266X&lt;BR&gt;
      3290H&lt;BR&gt;
      3290P&lt;BR&gt;
      3290W&lt;BR&gt;
      3292P&lt;BR&gt;
      3292W&lt;BR&gt;
      3292X&lt;BR&gt;
      3296P&lt;BR&gt;
      3296W&lt;BR&gt;
      3296X&lt;BR&gt;
      3296Y&lt;BR&gt;
      3296Z&lt;BR&gt;
      3299P&lt;BR&gt;
      3299W&lt;BR&gt;
      3299X&lt;BR&gt;
      3299Y&lt;BR&gt;
      3299Z&lt;BR&gt;&lt;/FONT&gt;
    &lt;/TD&gt;
    &lt;TD BGCOLOR="#cccccc" ALIGN=CENTER&gt;&lt;FONT FACE=ARIAL SIZE=3&gt;
      -&lt;BR&gt;
      66P&amp;nbsp;ALT&lt;BR&gt;
      66W&amp;nbsp;ALT&lt;BR&gt;
      66X&amp;nbsp;ALT&lt;BR&gt;
      66P&amp;nbsp;ALT&lt;BR&gt;
      66W&amp;nbsp;ALT&lt;BR&gt;
      66X&amp;nbsp;ALT&lt;BR&gt;
      -&lt;BR&gt;
      64W&amp;nbsp;ALT&lt;BR&gt;
      -&lt;BR&gt;
      64P&amp;nbsp;ALT&lt;BR&gt;
      64W&amp;nbsp;ALT&lt;BR&gt;
      64X&amp;nbsp;ALT&lt;BR&gt;
      64P&lt;BR&gt;
      64W&lt;BR&gt;
      64X&lt;BR&gt;
      66X&amp;nbsp;ALT&lt;BR&gt;
      66P&amp;nbsp;ALT&lt;BR&gt;
      66W&amp;nbsp;ALT&lt;BR&gt;
      66P&lt;BR&gt;
      66W&lt;BR&gt;
      66X&lt;BR&gt;
      67P&lt;BR&gt;
      67W&lt;BR&gt;
      67X&lt;BR&gt;
      67Y&lt;BR&gt;
      67Z&lt;BR&gt;
      68P&lt;BR&gt;
      68W&lt;BR&gt;
      68X&lt;BR&gt;
      67Y&amp;nbsp;ALT&lt;BR&gt;
      67Z&amp;nbsp;ALT&lt;BR&gt;&lt;/FONT&gt;
    &lt;/TD&gt;
    &lt;TD BGCOLOR="#cccccc" ALIGN=CENTER&gt;&lt;FONT FACE=ARIAL SIZE=3&gt;
      5050&lt;BR&gt;
      5091&lt;BR&gt;
      5080&lt;BR&gt;
      5087&lt;BR&gt;
      -&lt;BR&gt;
      -&lt;BR&gt;
      -&lt;BR&gt;
      -&lt;BR&gt;
      -&lt;BR&gt;
      -&lt;BR&gt;
      -&lt;BR&gt;
      T63YB&lt;BR&gt;
      T63XB&lt;BR&gt;
      -&lt;BR&gt;
      -&lt;BR&gt;
      -&lt;BR&gt;
      5887&lt;BR&gt;
      5891&lt;BR&gt;
      5880&lt;BR&gt;
      -&lt;BR&gt;
      -&lt;BR&gt;
      -&lt;BR&gt;
      T93Z&lt;BR&gt;
      T93YA&lt;BR&gt;
      T93XA&lt;BR&gt;
      T93YB&lt;BR&gt;
      T93XB&lt;BR&gt;
      -&lt;BR&gt;
      -&lt;BR&gt;
      -&lt;BR&gt;
      -&lt;BR&gt;
      -&lt;BR&gt;&lt;/FONT&gt;
    &lt;/TD&gt;
    &lt;TD BGCOLOR="#cccccc" ALIGN=CENTER&gt;&lt;FONT FACE=ARIAL SIZE=3&gt;
      -&lt;BR&gt;
      -&lt;BR&gt;
      -&lt;BR&gt;
      -&lt;BR&gt;
      -&lt;BR&gt;
      -&lt;BR&gt;
      -&lt;BR&gt;
      -&lt;BR&gt;
      -&lt;BR&gt;
      -&lt;BR&gt;
      8026EKP&lt;BR&gt;
      8026EKW&lt;BR&gt;
      8026EKM&lt;BR&gt;
      8026EKP&lt;BR&gt;
      8026EKB&lt;BR&gt;
      8026EKM&lt;BR&gt;
      1309X&lt;BR&gt;
      1309P&lt;BR&gt;
      1309W&lt;BR&gt;
      8024EKP&lt;BR&gt;
      8024EKW&lt;BR&gt;
      8024EKN&lt;BR&gt;
      RJ-9P/CT9P&lt;BR&gt;
      RJ-9W&lt;BR&gt;
      RJ-9X&lt;BR&gt;
      -&lt;BR&gt;
      -&lt;BR&gt;
      -&lt;BR&gt;
      -&lt;BR&gt;
      -&lt;BR&gt;
      -&lt;BR&gt;
      -&lt;BR&gt;&lt;/FONT&gt;
    &lt;/TD&gt;
    &lt;TD BGCOLOR="#cccccc" ALIGN=CENTER&gt;&lt;FONT FACE=ARIAL SIZE=3&gt;
      -&lt;BR&gt;
      -&lt;BR&gt;
      -&lt;BR&gt;
      -&lt;BR&gt;
      -&lt;BR&gt;
      -&lt;BR&gt;
      -&lt;BR&gt;
      -&lt;BR&gt;
      -&lt;BR&gt;
      -&lt;BR&gt;
      3103P&lt;BR&gt;
      3103Y&lt;BR&gt;
      3103Z&lt;BR&gt;
      3103P&lt;BR&gt;
      3103Y&lt;BR&gt;
      3103Z&lt;BR&gt;
      -&lt;BR&gt;
      -&lt;BR&gt;
      -&lt;BR&gt;
      -&lt;BR&gt;
      -&lt;BR&gt;
      -&lt;BR&gt;
      3105P/3106P&lt;BR&gt;
      3105W/3106W&lt;BR&gt;
      3105X/3106X&lt;BR&gt;
      3105Y/3106Y&lt;BR&gt;
      3105Z/3105Z&lt;BR&gt;
      3102P&lt;BR&gt;
      3102W&lt;BR&gt;
      3102X&lt;BR&gt;
      3102Y&lt;BR&gt;
      3102Z&lt;BR&gt;&lt;/FONT&gt;
    &lt;/TD&gt;
    &lt;TD BGCOLOR="#cccccc" ALIGN=CENTER&gt;&lt;FONT FACE=ARIAL SIZE=3&gt;
      -&lt;BR&gt;
      -&lt;BR&gt;
      -&lt;BR&gt;
      -&lt;BR&gt;
      -&lt;BR&gt;
      -&lt;BR&gt;
      -&lt;BR&gt;
      -&lt;BR&gt;
      -&lt;BR&gt;
      -&lt;BR&gt;
      -&lt;BR&gt;
      -&lt;BR&gt;
      -&lt;BR&gt;
      -&lt;BR&gt;
      -&lt;BR&gt;
      -&lt;BR&gt;
      -&lt;BR&gt;
      -&lt;BR&gt;
      -&lt;BR&gt;
      -&lt;BR&gt;
      -&lt;BR&gt;
      -&lt;BR&gt;
      EVMCBG&lt;BR&gt;
      EVMCCG&lt;BR&gt;
      -&lt;BR&gt;
      -&lt;BR&gt;
      -&lt;BR&gt;
      -&lt;BR&gt;
      -&lt;BR&gt;
      -&lt;BR&gt;
      -&lt;BR&gt;
      -&lt;BR&gt;&lt;/FONT&gt;
    &lt;/TD&gt;
    &lt;TD BGCOLOR="#cccccc" ALIGN=CENTER&gt;&lt;FONT FACE=ARIAL SIZE=3&gt;
      55-1-X&lt;BR&gt;
      55-4-X&lt;BR&gt;
      55-3-X&lt;BR&gt;
      55-2-X&lt;BR&gt;
      -&lt;BR&gt;
      -&lt;BR&gt;
      -&lt;BR&gt;
      -&lt;BR&gt;
      -&lt;BR&gt;
      -&lt;BR&gt;
      -&lt;BR&gt;
      -&lt;BR&gt;
      -&lt;BR&gt;
      -&lt;BR&gt;
      -&lt;BR&gt;
      -&lt;BR&gt;
      50-2-X&lt;BR&gt;
      50-4-X&lt;BR&gt;
      50-3-X&lt;BR&gt;
      -&lt;BR&gt;
      -&lt;BR&gt;
      -&lt;BR&gt;
      64P&lt;BR&gt;
      64W&lt;BR&gt;
      64X&lt;BR&gt;
      64Y&lt;BR&gt;
      64Z&lt;BR&gt;
      -&lt;BR&gt;
      -&lt;BR&gt;
      -&lt;BR&gt;
      -&lt;BR&gt;
      -&lt;BR&gt;&lt;/FONT&gt;
    &lt;/TD&gt;
    &lt;TD BGCOLOR="#cccccc" ALIGN=CENTER&gt;&lt;FONT FACE=ARIAL SIZE=3&gt;
      RT/RTR22&lt;BR&gt;
      RT/RTR22&lt;BR&gt;
      RT/RTR22&lt;BR&gt;
      RT/RTR22&lt;BR&gt;
      RJ/RJR22&lt;BR&gt;
      RJ/RJR22&lt;BR&gt;
      RJ/RJR22&lt;BR&gt;
      RT/RTR26&lt;BR&gt;
      RT/RTR26&lt;BR&gt;
      RT/RTR26&lt;BR&gt;
      RJ/RJR26&lt;BR&gt;
      RJ/RJR26&lt;BR&gt;
      RJ/RJR26&lt;BR&gt;
      RJ/RJR26&lt;BR&gt;
      RJ/RJR26&lt;BR&gt;
      RJ/RJR26&lt;BR&gt;
      RT/RTR24&lt;BR&gt;
      RT/RTR24&lt;BR&gt;
      RT/RTR24&lt;BR&gt;
      RJ/RJR24&lt;BR&gt;
      RJ/RJR24&lt;BR&gt;
      RJ/RJR24&lt;BR&gt;
      RJ/RJR24&lt;BR&gt;
      RJ/RJR24&lt;BR&gt;
      RJ/RJR24&lt;BR&gt;
      -&lt;BR&gt;
      -&lt;BR&gt;
      -&lt;BR&gt;
      -&lt;BR&gt;
      -&lt;BR&gt;
      -&lt;BR&gt;
      -&lt;BR&gt;&lt;/FONT&gt;
    &lt;/TD&gt;
  &lt;/TR&gt;
  &lt;TR&gt;
    &lt;TD COLSPAN=8&gt;&amp;nbsp;
    &lt;/TD&gt;
  &lt;/TR&gt;
  &lt;TR&gt;
    &lt;TD COLSPAN=8&gt;
      &lt;FONT SIZE=4 FACE=ARIAL&gt;&lt;B&gt;SINGLE TURN&lt;/B&gt;&lt;/FONT&gt;
    &lt;/TD&gt;
  &lt;/TR&gt;
  &lt;TR&gt;
    &lt;TD ALIGN=CENTER&gt;
      &lt;FONT SIZE=3 FACE=ARIAL&gt;&lt;B&gt;BOURN&lt;/B&gt;&lt;/FONT&gt;
    &lt;/TD&gt;
    &lt;TD ALIGN=CENTER&gt;
      &lt;FONT SIZE=3 FACE=ARIAL&gt;&lt;B&gt;BI&amp;nbsp;TECH&lt;/B&gt;&lt;/FONT&gt;
    &lt;/TD&gt;
    &lt;TD ALIGN=CENTER&gt;
      &lt;FONT SIZE=3 FACE=ARIAL&gt;&lt;B&gt;DALE-VISHAY&lt;/B&gt;&lt;/FONT&gt;
    &lt;/TD&gt;
    &lt;TD ALIGN=CENTER&gt;
      &lt;FONT SIZE=3 FACE=ARIAL&gt;&lt;B&gt;PHILIPS/MEPCO&lt;/B&gt;&lt;/FONT&gt;
    &lt;/TD&gt;
    &lt;TD ALIGN=CENTER&gt;
      &lt;FONT SIZE=3 FACE=ARIAL&gt;&lt;B&gt;MURATA&lt;/B&gt;&lt;/FONT&gt;
    &lt;/TD&gt;
    &lt;TD ALIGN=CENTER&gt;
      &lt;FONT SIZE=3 FACE=ARIAL&gt;&lt;B&gt;PANASONIC&lt;/B&gt;&lt;/FONT&gt;
    &lt;/TD&gt;
    &lt;TD ALIGN=CENTER&gt;
      &lt;FONT SIZE=3 FACE=ARIAL&gt;&lt;B&gt;SPECTROL&lt;/B&gt;&lt;/FONT&gt;
    &lt;/TD&gt;
    &lt;TD ALIGN=CENTER&gt;
      &lt;FONT SIZE=3 FACE=ARIAL&gt;&lt;B&gt;MILSPEC&lt;/B&gt;&lt;/FONT&gt;
    &lt;/TD&gt;
  &lt;/TR&gt;
  &lt;TR&gt;
    &lt;TD BGCOLOR="#cccccc" ALIGN=CENTER&gt;&lt;FONT FACE=ARIAL SIZE=3&gt;
      3323P&lt;BR&gt;
      3323S&lt;BR&gt;
      3323W&lt;BR&gt;
      3329H&lt;BR&gt;
      3329P&lt;BR&gt;
      3329W&lt;BR&gt;
      3339H&lt;BR&gt;
      3339P&lt;BR&gt;
      3339W&lt;BR&gt;
      3352E&lt;BR&gt;
      3352H&lt;BR&gt;
      3352K&lt;BR&gt;
      3352P&lt;BR&gt;
      3352T&lt;BR&gt;
      3352V&lt;BR&gt;
      3352W&lt;BR&gt;
      3362H&lt;BR&gt;
      3362M&lt;BR&gt;
      3362P&lt;BR&gt;
      3362R&lt;BR&gt;
      3362S&lt;BR&gt;
      3362U&lt;BR&gt;
      3362W&lt;BR&gt;
      3362X&lt;BR&gt;
      3386B&lt;BR&gt;
      3386C&lt;BR&gt;
      3386F&lt;BR&gt;
      3386H&lt;BR&gt;
      3386K&lt;BR&gt;
      3386M&lt;BR&gt;
      3386P&lt;BR&gt;
      3386S&lt;BR&gt;
      3386W&lt;BR&gt;
      3386X&lt;BR&gt;&lt;/FONT&gt;
    &lt;/TD&gt;
    &lt;TD BGCOLOR="#cccccc" ALIGN=CENTER&gt;&lt;FONT FACE=ARIAL SIZE=3&gt;
      25P&lt;BR&gt;
      25S&lt;BR&gt;
      25RX&lt;BR&gt;
      82P&lt;BR&gt;
      82M&lt;BR&gt;
      82PA&lt;BR&gt;
      -&lt;BR&gt;
      -&lt;BR&gt;
      -&lt;BR&gt;
      91E&lt;BR&gt;
      91X&lt;BR&gt;
      91T&lt;BR&gt;
      91B&lt;BR&gt;
      91A&lt;BR&gt;
      91V&lt;BR&gt;
      91W&lt;BR&gt;
      25W&lt;BR&gt;
      25V&lt;BR&gt;
      25P&lt;BR&gt;
      -&lt;BR&gt;
      25S&lt;BR&gt;
      25U&lt;BR&gt;
      25RX&lt;BR&gt;
      25X&lt;BR&gt;
      72XW&lt;BR&gt;
      72XL&lt;BR&gt;
      72PM&lt;BR&gt;
      72RX&lt;BR&gt;
      -&lt;BR&gt;
      72PX&lt;BR&gt;
      72P&lt;BR&gt;
      72RXW&lt;BR&gt;
      72RXL&lt;BR&gt;
      72X&lt;BR&gt;&lt;/FONT&gt;
    &lt;/TD&gt;
    &lt;TD BGCOLOR="#cccccc" ALIGN=CENTER&gt;&lt;FONT FACE=ARIAL SIZE=3&gt;
      -&lt;BR&gt;
      -&lt;BR&gt;
      -&lt;BR&gt;
      T7YB&lt;BR&gt;
      T7YA&lt;BR&gt;
      -&lt;BR&gt;
      -&lt;BR&gt;
      -&lt;BR&gt;
      -&lt;BR&gt;
      -&lt;BR&gt;
      -&lt;BR&gt;
      -&lt;BR&gt;
      -&lt;BR&gt;
      -&lt;BR&gt;
      -&lt;BR&gt;
      -&lt;BR&gt;
      -&lt;BR&gt;
      TXD&lt;BR&gt;
      TYA&lt;BR&gt;
      TYP&lt;BR&gt;
      -&lt;BR&gt;
      TYD&lt;BR&gt;
      TX&lt;BR&gt;
      -&lt;BR&gt;
      150SX&lt;BR&gt;
      100SX&lt;BR&gt;
      102T&lt;BR&gt;
      101S&lt;BR&gt;
      190T&lt;BR&gt;
      150TX&lt;BR&gt;
      101&lt;BR&gt;
      -&lt;BR&gt;
      -&lt;BR&gt;
      101SX&lt;BR&gt;&lt;/FONT&gt;
    &lt;/TD&gt;
    &lt;TD BGCOLOR="#cccccc" ALIGN=CENTER&gt;&lt;FONT FACE=ARIAL SIZE=3&gt;
      ET6P&lt;BR&gt;
      ET6S&lt;BR&gt;
      ET6X&lt;BR&gt;
      RJ-6W/8014EMW&lt;BR&gt;
      RJ-6P/8014EMP&lt;BR&gt;
      RJ-6X/8014EMX&lt;BR&gt;
      TM7W&lt;BR&gt;
      TM7P&lt;BR&gt;
      TM7X&lt;BR&gt;
      -&lt;BR&gt;
      8017SMS&lt;BR&gt;
      -&lt;BR&gt;
      8017SMB&lt;BR&gt;
      8017SMA&lt;BR&gt;
      -&lt;BR&gt;
      -&lt;BR&gt;
      CT-6W&lt;BR&gt;
      CT-6H&lt;BR&gt;
      CT-6P&lt;BR&gt;
      CT-6R&lt;BR&gt;
      -&lt;BR&gt;
      CT-6V&lt;BR&gt;
      CT-6X&lt;BR&gt;
      -&lt;BR&gt;
      -&lt;BR&gt;
      8038EKV&lt;BR&gt;
      -&lt;BR&gt;
      8038EKX&lt;BR&gt;
      -&lt;BR&gt;
      -&lt;BR&gt;
      8038EKP&lt;BR&gt;
      8038EKZ&lt;BR&gt;
      8038EKW&lt;BR&gt;
      -&lt;BR&gt;&lt;/FONT&gt;
    &lt;/TD&gt;
    &lt;TD BGCOLOR="#cccccc" ALIGN=CENTER&gt;&lt;FONT FACE=ARIAL SIZE=3&gt;
      -&lt;BR&gt;
      -&lt;BR&gt;
      -&lt;BR&gt;
      3321H&lt;BR&gt;
      3321P&lt;BR&gt;
      3321N&lt;BR&gt;
      1102H&lt;BR&gt;
      1102P&lt;BR&gt;
      1102T&lt;BR&gt;
      RVA0911V304A&lt;BR&gt;
      -&lt;BR&gt;
      RVA0911H413A&lt;BR&gt;
      RVG0707V100A&lt;BR&gt;
      RVA0607V(H)306A&lt;BR&gt;
      RVA1214H213A&lt;BR&gt;
      -&lt;BR&gt;
      -&lt;BR&gt;
      -&lt;BR&gt;
      -&lt;BR&gt;
      -&lt;BR&gt;
      -&lt;BR&gt;
      -&lt;BR&gt;
      -&lt;BR&gt;
      -&lt;BR&gt;
      3104B&lt;BR&gt;
      3104C&lt;BR&gt;
      3104F&lt;BR&gt;
      3104H&lt;BR&gt;
      -&lt;BR&gt;
      3104M&lt;BR&gt;
      3104P&lt;BR&gt;
      3104S&lt;BR&gt;
      3104W&lt;BR&gt;
      3104X&lt;BR&gt;&lt;/FONT&gt;
    &lt;/TD&gt;
    &lt;TD BGCOLOR="#cccccc" ALIGN=CENTER&gt;&lt;FONT FACE=ARIAL SIZE=3&gt;
      EVMQ0G&lt;BR&gt;
      EVMQIG&lt;BR&gt;
      EVMQ3G&lt;BR&gt;
      EVMS0G&lt;BR&gt;
      EVMQ0G&lt;BR&gt;
      EVMG0G&lt;BR&gt;
      -&lt;BR&gt;
      -&lt;BR&gt;
      -&lt;BR&gt;
      EVMK4GA00B&lt;BR&gt;
      EVM30GA00B&lt;BR&gt;
      EVMK0GA00B&lt;BR&gt;
      EVM38GA00B&lt;BR&gt;
      EVMB6&lt;BR&gt;
      EVLQ0&lt;BR&gt;
      -&lt;BR&gt;
      EVMMSG&lt;BR&gt;
      EVMMBG&lt;BR&gt;
      EVMMAG&lt;BR&gt;
      -&lt;BR&gt;
      -&lt;BR&gt;
      EVMMCS&lt;BR&gt;
      -&lt;BR&gt;
      -&lt;BR&gt;
      -&lt;BR&gt;
      -&lt;BR&gt;
      -&lt;BR&gt;
      EVMM1&lt;BR&gt;
      -&lt;BR&gt;
      -&lt;BR&gt;
      EVMM0&lt;BR&gt;
      -&lt;BR&gt;
      -&lt;BR&gt;
      EVMM3&lt;BR&gt;&lt;/FONT&gt;
    &lt;/TD&gt;
    &lt;TD BGCOLOR="#cccccc" ALIGN=CENTER&gt;&lt;FONT FACE=ARIAL SIZE=3&gt;
      -&lt;BR&gt;
      -&lt;BR&gt;
      -&lt;BR&gt;
      62-3-1&lt;BR&gt;
      62-1-2&lt;BR&gt;
      -&lt;BR&gt;
      -&lt;BR&gt;
      -&lt;BR&gt;
      -&lt;BR&gt;
      -&lt;BR&gt;
      -&lt;BR&gt;
      -&lt;BR&gt;
      -&lt;BR&gt;
      -&lt;BR&gt;
      -&lt;BR&gt;
      -&lt;BR&gt;
      67R&lt;BR&gt;
      -&lt;BR&gt;
      67P&lt;BR&gt;
      -&lt;BR&gt;
      -&lt;BR&gt;
      -&lt;BR&gt;
      -&lt;BR&gt;
      67X&lt;BR&gt;
      63V&lt;BR&gt;
      63S&lt;BR&gt;
      63M&lt;BR&gt;
      -&lt;BR&gt;
      -&lt;BR&gt;
      63H&lt;BR&gt;
      63P&lt;BR&gt;
      -&lt;BR&gt;
      -&lt;BR&gt;
      63X&lt;BR&gt;&lt;/FONT&gt;
    &lt;/TD&gt;
    &lt;TD BGCOLOR="#cccccc" ALIGN=CENTER&gt;&lt;FONT FACE=ARIAL SIZE=3&gt;
      -&lt;BR&gt;
      -&lt;BR&gt;
      -&lt;BR&gt;
      RJ/RJR50&lt;BR&gt;
      RJ/RJR50&lt;BR&gt;
      RJ/RJR50&lt;BR&gt;
      -&lt;BR&gt;
      -&lt;BR&gt;
      -&lt;BR&gt;
      -&lt;BR&gt;
      -&lt;BR&gt;
      -&lt;BR&gt;
      -&lt;BR&gt;
      -&lt;BR&gt;
      -&lt;BR&gt;
      -&lt;BR&gt;
      -&lt;BR&gt;
      -&lt;BR&gt;
      -&lt;BR&gt;
      -&lt;BR&gt;
      -&lt;BR&gt;
      -&lt;BR&gt;
      -&lt;BR&gt;
      -&lt;BR&gt;
      -&lt;BR&gt;
      -&lt;BR&gt;
      -&lt;BR&gt;
      -&lt;BR&gt;
      -&lt;BR&gt;
      -&lt;BR&gt;
      -&lt;BR&gt;
      -&lt;BR&gt;
      -&lt;BR&gt;
      -&lt;BR&gt;&lt;/FONT&gt;
    &lt;/TD&gt;
  &lt;/TR&gt;
&lt;/TABLE&gt;
&lt;P&gt;&amp;nbsp;&lt;P&gt;
&lt;TABLE BORDER=0 CELLSPACING=1 CELLPADDING=3&gt;
  &lt;TR&gt;
    &lt;TD COLSPAN=7&gt;
      &lt;FONT color="#0000FF" SIZE=4 FACE=ARIAL&gt;&lt;B&gt;SMD TRIM-POT CROSS REFERENCE&lt;/B&gt;&lt;/FONT&gt;
      &lt;P&gt;
      &lt;FONT SIZE=4 FACE=ARIAL&gt;&lt;B&gt;MULTI-TURN&lt;/B&gt;&lt;/FONT&gt;
    &lt;/TD&gt;
  &lt;/TR&gt;
  &lt;TR&gt;
    &lt;TD&gt;
      &lt;FONT SIZE=3 FACE=ARIAL&gt;&lt;B&gt;BOURNS&lt;/B&gt;&lt;/FONT&gt;
    &lt;/TD&gt;
    &lt;TD&gt;
      &lt;FONT SIZE=3 FACE=ARIAL&gt;&lt;B&gt;BI&amp;nbsp;TECH&lt;/B&gt;&lt;/FONT&gt;
    &lt;/TD&gt;
    &lt;TD&gt;
      &lt;FONT SIZE=3 FACE=ARIAL&gt;&lt;B&gt;DALE-VISHAY&lt;/B&gt;&lt;/FONT&gt;
    &lt;/TD&gt;
    &lt;TD&gt;
      &lt;FONT SIZE=3 FACE=ARIAL&gt;&lt;B&gt;PHILIPS/MEPCO&lt;/B&gt;&lt;/FONT&gt;
    &lt;/TD&gt;
    &lt;TD&gt;
      &lt;FONT SIZE=3 FACE=ARIAL&gt;&lt;B&gt;PANASONIC&lt;/B&gt;&lt;/FONT&gt;
    &lt;/TD&gt;
    &lt;TD&gt;
      &lt;FONT SIZE=3 FACE=ARIAL&gt;&lt;B&gt;TOCOS&lt;/B&gt;&lt;/FONT&gt;
    &lt;/TD&gt;
    &lt;TD&gt;
      &lt;FONT SIZE=3 FACE=ARIAL&gt;&lt;B&gt;AUX/KYOCERA&lt;/B&gt;&lt;/FONT&gt;
    &lt;/TD&gt;
  &lt;/TR&gt;
  &lt;TR&gt;
    &lt;TD BGCOLOR="#cccccc" ALIGN=CENTER&gt;&lt;FONT FACE=ARIAL SIZE=3&gt;
      3224G&lt;BR&gt;
      3224J&lt;BR&gt;
      3224W&lt;BR&gt;
      3269P&lt;BR&gt;
      3269W&lt;BR&gt;
      3269X&lt;BR&gt;&lt;/FONT&gt;
    &lt;/TD&gt;
    &lt;TD BGCOLOR="#cccccc" ALIGN=CENTER&gt;&lt;FONT FACE=ARIAL SIZE=3&gt;
      44G&lt;BR&gt;
      44J&lt;BR&gt;
      44W&lt;BR&gt;
      84P&lt;BR&gt;
      84W&lt;BR&gt;
      84X&lt;BR&gt;&lt;/FONT&gt;
    &lt;/TD&gt;
    &lt;TD BGCOLOR="#cccccc" ALIGN=CENTER&gt;&lt;FONT FACE=ARIAL SIZE=3&gt;
      -&lt;BR&gt;
      -&lt;BR&gt;
      -&lt;BR&gt;
      ST63Z&lt;BR&gt;
      ST63Y&lt;BR&gt;
      -&lt;BR&gt;&lt;/FONT&gt;
    &lt;/TD&gt;
    &lt;TD BGCOLOR="#cccccc" ALIGN=CENTER&gt;&lt;FONT FACE=ARIAL SIZE=3&gt;
      -&lt;BR&gt;
      -&lt;BR&gt;
      -&lt;BR&gt;
      ST5P&lt;BR&gt;
      ST5W&lt;BR&gt;
      ST5X&lt;BR&gt;&lt;/FONT&gt;
    &lt;/TD&gt;
    &lt;TD BGCOLOR="#cccccc" ALIGN=CENTER&gt;&lt;FONT FACE=ARIAL SIZE=3&gt;
      -&lt;BR&gt;
      -&lt;BR&gt;
      -&lt;BR&gt;
      -&lt;BR&gt;
      -&lt;BR&gt;
      -&lt;BR&gt;&lt;/FONT&gt;
    &lt;/TD&gt;
    &lt;TD BGCOLOR="#cccccc" ALIGN=CENTER&gt;&lt;FONT FACE=ARIAL SIZE=3&gt;
      -&lt;BR&gt;
      -&lt;BR&gt;
      -&lt;BR&gt;
      -&lt;BR&gt;
      -&lt;BR&gt;
      -&lt;BR&gt;&lt;/FONT&gt;
    &lt;/TD&gt;
    &lt;TD BGCOLOR="#cccccc" ALIGN=CENTER&gt;&lt;FONT FACE=ARIAL SIZE=3&gt;
      -&lt;BR&gt;
      -&lt;BR&gt;
      -&lt;BR&gt;
      -&lt;BR&gt;
      -&lt;BR&gt;
      -&lt;BR&gt;&lt;/FONT&gt;
    &lt;/TD&gt;
  &lt;/TR&gt;
  &lt;TR&gt;
    &lt;TD COLSPAN=7&gt;&amp;nbsp;
    &lt;/TD&gt;
  &lt;/TR&gt;
  &lt;TR&gt;
    &lt;TD COLSPAN=7&gt;
      &lt;FONT SIZE=4 FACE=ARIAL&gt;&lt;B&gt;SINGLE TURN&lt;/B&gt;&lt;/FONT&gt;
    &lt;/TD&gt;
  &lt;/TR&gt;
  &lt;TR&gt;
    &lt;TD&gt;
      &lt;FONT SIZE=3 FACE=ARIAL&gt;&lt;B&gt;BOURNS&lt;/B&gt;&lt;/FONT&gt;
    &lt;/TD&gt;
    &lt;TD&gt;
      &lt;FONT SIZE=3 FACE=ARIAL&gt;&lt;B&gt;BI&amp;nbsp;TECH&lt;/B&gt;&lt;/FONT&gt;
    &lt;/TD&gt;
    &lt;TD&gt;
      &lt;FONT SIZE=3 FACE=ARIAL&gt;&lt;B&gt;DALE-VISHAY&lt;/B&gt;&lt;/FONT&gt;
    &lt;/TD&gt;
    &lt;TD&gt;
      &lt;FONT SIZE=3 FACE=ARIAL&gt;&lt;B&gt;PHILIPS/MEPCO&lt;/B&gt;&lt;/FONT&gt;
    &lt;/TD&gt;
    &lt;TD&gt;
      &lt;FONT SIZE=3 FACE=ARIAL&gt;&lt;B&gt;PANASONIC&lt;/B&gt;&lt;/FONT&gt;
    &lt;/TD&gt;
    &lt;TD&gt;
      &lt;FONT SIZE=3 FACE=ARIAL&gt;&lt;B&gt;TOCOS&lt;/B&gt;&lt;/FONT&gt;
    &lt;/TD&gt;
    &lt;TD&gt;
      &lt;FONT SIZE=3 FACE=ARIAL&gt;&lt;B&gt;AUX/KYOCERA&lt;/B&gt;&lt;/FONT&gt;
    &lt;/TD&gt;
  &lt;/TR&gt;
  &lt;TR&gt;
    &lt;TD BGCOLOR="#cccccc" ALIGN=CENTER&gt;&lt;FONT FACE=ARIAL SIZE=3&gt;
      3314G&lt;BR&gt;
      3314J&lt;BR&gt;
      3364A/B&lt;BR&gt;
      3364C/D&lt;BR&gt;
      3364W/X&lt;BR&gt;
      3313G&lt;BR&gt;
      3313J&lt;BR&gt;&lt;/FONT&gt;
    &lt;/TD&gt;
    &lt;TD BGCOLOR="#cccccc" ALIGN=CENTER&gt;&lt;FONT FACE=ARIAL SIZE=3&gt;
      23B&lt;BR&gt;
      23A&lt;BR&gt;
      21X&lt;BR&gt;
      21W&lt;BR&gt;
      -&lt;BR&gt;
      22B&lt;BR&gt;
      22A&lt;BR&gt;&lt;/FONT&gt;
    &lt;/TD&gt;
    &lt;TD BGCOLOR="#cccccc" ALIGN=CENTER&gt;&lt;FONT FACE=ARIAL SIZE=3&gt;
      ST5YL/ST53YL&lt;BR&gt;
      ST5YJ/5T53YJ&lt;BR&gt;
      ST-23A&lt;BR&gt;
      ST-22B&lt;BR&gt;
      ST-22&lt;BR&gt;
      -&lt;BR&gt;
      -&lt;BR&gt;&lt;/FONT&gt;
    &lt;/TD&gt;
    &lt;TD BGCOLOR="#cccccc" ALIGN=CENTER&gt;&lt;FONT FACE=ARIAL SIZE=3&gt;
      ST-4B&lt;BR&gt;
      ST-4A&lt;BR&gt;
      -&lt;BR&gt;
      -&lt;BR&gt;
      -&lt;BR&gt;
      ST-3B&lt;BR&gt;
      ST-3A&lt;BR&gt;&lt;/FONT&gt;
    &lt;/TD&gt;
    &lt;TD BGCOLOR="#cccccc" ALIGN=CENTER&gt;&lt;FONT FACE=ARIAL SIZE=3&gt;
      -&lt;BR&gt;
      EVM-6YS&lt;BR&gt;
      EVM-1E&lt;BR&gt;
      EVM-1G&lt;BR&gt;
      EVM-1D&lt;BR&gt;
      -&lt;BR&gt;
      -&lt;BR&gt;&lt;/FONT&gt;
    &lt;/TD&gt;
    &lt;TD BGCOLOR="#cccccc" ALIGN=CENTER&gt;&lt;FONT FACE=ARIAL SIZE=3&gt;
      G4B&lt;BR&gt;
      G4A&lt;BR&gt;
      TR04-3S1&lt;BR&gt;
      TRG04-2S1&lt;BR&gt;
      -&lt;BR&gt;
      -&lt;BR&gt;
      -&lt;BR&gt;&lt;/FONT&gt;
    &lt;/TD&gt;
    &lt;TD BGCOLOR="#cccccc" ALIGN=CENTER&gt;&lt;FONT FACE=ARIAL SIZE=3&gt;
      -&lt;BR&gt;
      -&lt;BR&gt;
      DVR-43A&lt;BR&gt;
      CVR-42C&lt;BR&gt;
      CVR-42A/C&lt;BR&gt;
      -&lt;BR&gt;
      -&lt;BR&gt;&lt;/FONT&gt;
    &lt;/TD&gt;
  &lt;/TR&gt;
&lt;/TABLE&gt;
&lt;P&gt;
&lt;FONT SIZE=4 FACE=ARIAL&gt;&lt;B&gt;ALT =&amp;nbsp;ALTERNATE&lt;/B&gt;&lt;/FONT&gt;
&lt;P&gt;

&amp;nbsp;
&lt;P&gt;
&lt;/td&gt;
&lt;/tr&gt;
&lt;/table&gt;</description>
<packages>
<package name="0204V" urn="urn:adsk.eagle:footprint:22999/1" library_version="5">
<description>&lt;b&gt;RESISTOR&lt;/b&gt;&lt;p&gt;
type 0204, grid 2.5 mm</description>
<wire x1="-1.27" y1="0" x2="1.27" y2="0" width="0.508" layer="51"/>
<wire x1="-0.127" y1="0" x2="0.127" y2="0" width="0.508" layer="21"/>
<circle x="-1.27" y="0" radius="0.889" width="0.1524" layer="51"/>
<circle x="-1.27" y="0" radius="0.635" width="0.0508" layer="51"/>
<pad name="1" x="-1.27" y="0" drill="0.8128" shape="octagon"/>
<pad name="2" x="1.27" y="0" drill="0.8128" shape="octagon"/>
<text x="-2.1336" y="1.1684" size="1.27" layer="25" ratio="10">&gt;NAME</text>
<text x="-2.1336" y="-2.3114" size="1.27" layer="27" ratio="10">&gt;VALUE</text>
</package>
<package name="0207/10" urn="urn:adsk.eagle:footprint:22992/1" library_version="5">
<description>&lt;b&gt;RESISTOR&lt;/b&gt;&lt;p&gt;
type 0207, grid 10 mm</description>
<wire x1="5.08" y1="0" x2="4.064" y2="0" width="0.6096" layer="51"/>
<wire x1="-5.08" y1="0" x2="-4.064" y2="0" width="0.6096" layer="51"/>
<wire x1="-3.175" y1="0.889" x2="-2.921" y2="1.143" width="0.1524" layer="21" curve="-90"/>
<wire x1="-3.175" y1="-0.889" x2="-2.921" y2="-1.143" width="0.1524" layer="21" curve="90"/>
<wire x1="2.921" y1="-1.143" x2="3.175" y2="-0.889" width="0.1524" layer="21" curve="90"/>
<wire x1="2.921" y1="1.143" x2="3.175" y2="0.889" width="0.1524" layer="21" curve="-90"/>
<wire x1="-3.175" y1="-0.889" x2="-3.175" y2="0.889" width="0.1524" layer="21"/>
<wire x1="-2.921" y1="1.143" x2="-2.54" y2="1.143" width="0.1524" layer="21"/>
<wire x1="-2.413" y1="1.016" x2="-2.54" y2="1.143" width="0.1524" layer="21"/>
<wire x1="-2.921" y1="-1.143" x2="-2.54" y2="-1.143" width="0.1524" layer="21"/>
<wire x1="-2.413" y1="-1.016" x2="-2.54" y2="-1.143" width="0.1524" layer="21"/>
<wire x1="2.413" y1="1.016" x2="2.54" y2="1.143" width="0.1524" layer="21"/>
<wire x1="2.413" y1="1.016" x2="-2.413" y2="1.016" width="0.1524" layer="21"/>
<wire x1="2.413" y1="-1.016" x2="2.54" y2="-1.143" width="0.1524" layer="21"/>
<wire x1="2.413" y1="-1.016" x2="-2.413" y2="-1.016" width="0.1524" layer="21"/>
<wire x1="2.921" y1="1.143" x2="2.54" y2="1.143" width="0.1524" layer="21"/>
<wire x1="2.921" y1="-1.143" x2="2.54" y2="-1.143" width="0.1524" layer="21"/>
<wire x1="3.175" y1="-0.889" x2="3.175" y2="0.889" width="0.1524" layer="21"/>
<pad name="1" x="-5.08" y="0" drill="0.8128" shape="octagon"/>
<pad name="2" x="5.08" y="0" drill="0.8128" shape="octagon"/>
<text x="-3.048" y="1.524" size="1.27" layer="25" ratio="10">&gt;NAME</text>
<text x="-2.2606" y="-0.635" size="1.27" layer="27" ratio="10">&gt;VALUE</text>
<rectangle x1="3.175" y1="-0.3048" x2="4.0386" y2="0.3048" layer="21"/>
<rectangle x1="-4.0386" y1="-0.3048" x2="-3.175" y2="0.3048" layer="21"/>
</package>
</packages>
<packages3d>
<package3d name="0204V" urn="urn:adsk.eagle:package:23495/1" type="box" library_version="5">
<description>RESISTOR
type 0204, grid 2.5 mm</description>
<packageinstances>
<packageinstance name="0204V"/>
</packageinstances>
</package3d>
<package3d name="0207/10" urn="urn:adsk.eagle:package:23491/2" type="model" library_version="10">
<description>RESISTOR
type 0207, grid 10 mm</description>
<packageinstances>
<packageinstance name="0207/10"/>
</packageinstances>
</package3d>
</packages3d>
</library>
<library name="digispark">
<packages>
<package name="DIGISPARKPRO">
<description>Kickstarter Digispark Pro</description>
<pad name="PB7/RESET" x="7.62" y="-10.16" drill="1" diameter="2.1844"/>
<pad name="PA6/12/A12/SS" x="7.62" y="-7.62" drill="1" diameter="2.1844"/>
<pad name="PA5/11/A11/SCK" x="7.62" y="-5.08" drill="1" diameter="2.1844"/>
<pad name="PA4/10/A10/MOSI" x="7.62" y="-2.54" drill="1" diameter="2.1844"/>
<pad name="PA3/9/A9" x="7.62" y="0" drill="1" diameter="2.1844"/>
<pad name="PA2/8/8-C/A8/MISO" x="7.62" y="2.54" drill="1" diameter="2.1844"/>
<pad name="PA1/7/A7/TX" x="7.62" y="5.08" drill="1" diameter="2.1844"/>
<pad name="PA0/6/A6/RX" x="7.62" y="7.62" drill="1" diameter="2.1844"/>
<pad name="VCC/5V0" x="7.62" y="10.16" drill="1" diameter="2.1844"/>
<pad name="VCC/5V1" x="-7.62" y="10.16" drill="1" diameter="2.1844"/>
<pad name="PB0/0/0-A/SDA" x="-7.62" y="7.62" drill="1" diameter="2.1844"/>
<pad name="PB1/1/1-B/LED" x="-7.62" y="5.08" drill="1" diameter="2.1844"/>
<pad name="PB2/2/2-A/SCL" x="-7.62" y="2.54" drill="1" diameter="2.1844"/>
<pad name="PB6/3/3-A/A3/USB+" x="-7.62" y="0" drill="1" diameter="2.1844"/>
<pad name="PB3/4/4-B/USB-" x="-7.62" y="-2.54" drill="1" diameter="2.1844"/>
<pad name="PA7/5/A5" x="-7.62" y="-5.08" drill="1" diameter="2.1844"/>
<pad name="GND0" x="-7.62" y="-7.62" drill="1" diameter="2.1844" shape="square"/>
<pad name="VIN_6-16V0" x="-7.62" y="-10.16" drill="1" diameter="2.1844"/>
<wire x1="-6.35" y1="11.43" x2="-6.35" y2="-11.43" width="0.127" layer="21"/>
<wire x1="-6.35" y1="-11.43" x2="-8.89" y2="-11.43" width="0.127" layer="21"/>
<wire x1="-8.89" y1="-13.97" x2="-8.89" y2="11.43" width="0.127" layer="21"/>
<wire x1="8.89" y1="11.43" x2="8.89" y2="-11.43" width="0.127" layer="21"/>
<wire x1="8.89" y1="-11.43" x2="6.35" y2="-11.43" width="0.127" layer="21"/>
<wire x1="6.35" y1="-11.43" x2="6.35" y2="11.43" width="0.127" layer="21"/>
<wire x1="-8.89" y1="-13.97" x2="8.89" y2="-13.97" width="0.127" layer="21"/>
<wire x1="8.89" y1="-13.97" x2="8.89" y2="-11.43" width="0.127" layer="21"/>
<text x="-5.715" y="10.795" size="1.27" layer="25" rot="R180" align="bottom-right">&gt;NAME</text>
<wire x1="-8.89" y1="11.43" x2="8.89" y2="11.43" width="0.127" layer="21"/>
</package>
</packages>
</library>
<library name="connector">
<packages>
<package name="1X10-2.5MM">
<description>Connector BN 743119
Conrad no. 743119 - 62, part no.  44.812, EAN 4016138056082</description>
<pad name="P$1" x="0" y="-10" drill="1" diameter="1.9304"/>
<pad name="P$2" x="0" y="-7.5" drill="1" diameter="1.9304"/>
<pad name="P$3" x="0" y="-5" drill="1" diameter="1.9304"/>
<pad name="P$4" x="0" y="-2.5" drill="1" diameter="1.9304"/>
<pad name="P$5" x="0" y="0" drill="1" diameter="1.9304"/>
<pad name="P$6" x="0" y="2.5" drill="1" diameter="1.9304"/>
<pad name="P$7" x="0" y="5" drill="1" diameter="1.9304"/>
<pad name="P$8" x="0" y="7.5" drill="1" diameter="1.9304"/>
<pad name="P$9" x="0" y="10" drill="1" diameter="1.9304"/>
<pad name="P$10" x="0" y="12.5" drill="1" diameter="1.9304"/>
<text x="5" y="2.5" size="1.27" layer="25" rot="R270">&gt;NAME</text>
<wire x1="-2.5" y1="15" x2="2.5" y2="15" width="0.127" layer="21"/>
<wire x1="2.5" y1="15" x2="10" y2="15" width="0.127" layer="21"/>
<wire x1="10" y1="15" x2="10" y2="-12.5" width="0.127" layer="21"/>
<wire x1="10" y1="-12.5" x2="2.5" y2="-12.5" width="0.127" layer="21"/>
<wire x1="2.5" y1="-12.5" x2="-2.5" y2="-12.5" width="0.127" layer="21"/>
<wire x1="-2.5" y1="-12.5" x2="-2.5" y2="15" width="0.127" layer="21"/>
<wire x1="2.5" y1="15" x2="2.5" y2="-12.5" width="0.127" layer="21"/>
</package>
</packages>
</library>
<library name="led" urn="urn:adsk.eagle:library:259">
<description>&lt;b&gt;LEDs&lt;/b&gt;&lt;p&gt;
&lt;author&gt;Created by librarian@cadsoft.de&lt;/author&gt;&lt;br&gt;
Extended by Federico Battaglin &lt;author&gt;&amp;lt;federico.rd@fdpinternational.com&amp;gt;&lt;/author&gt; with DUOLED</description>
<packages>
<package name="LED5MM" urn="urn:adsk.eagle:footprint:15655/1" library_version="4">
<description>&lt;B&gt;LED&lt;/B&gt;&lt;p&gt;
5 mm, round</description>
<wire x1="2.54" y1="-1.905" x2="2.54" y2="1.905" width="0.2032" layer="21"/>
<wire x1="2.54" y1="-1.905" x2="2.54" y2="1.905" width="0.254" layer="21" curve="-286.260205"/>
<wire x1="-1.143" y1="0" x2="0" y2="1.143" width="0.1524" layer="51" curve="-90"/>
<wire x1="0" y1="-1.143" x2="1.143" y2="0" width="0.1524" layer="51" curve="90"/>
<wire x1="-1.651" y1="0" x2="0" y2="1.651" width="0.1524" layer="51" curve="-90"/>
<wire x1="0" y1="-1.651" x2="1.651" y2="0" width="0.1524" layer="51" curve="90"/>
<wire x1="-2.159" y1="0" x2="0" y2="2.159" width="0.1524" layer="51" curve="-90"/>
<wire x1="0" y1="-2.159" x2="2.159" y2="0" width="0.1524" layer="51" curve="90"/>
<circle x="0" y="0" radius="2.54" width="0.1524" layer="21"/>
<pad name="A" x="-1.27" y="0" drill="0.8128" shape="octagon"/>
<pad name="K" x="1.27" y="0" drill="0.8128" shape="octagon"/>
<text x="3.175" y="0.5334" size="1.27" layer="25" ratio="10">&gt;NAME</text>
<text x="3.2004" y="-1.8034" size="1.27" layer="27" ratio="10">&gt;VALUE</text>
</package>
</packages>
<packages3d>
<package3d name="LED5MM" urn="urn:adsk.eagle:package:15799/2" type="model" library_version="4">
<description>LED
5 mm, round</description>
<packageinstances>
<packageinstance name="LED5MM"/>
</packageinstances>
</package3d>
</packages3d>
</library>
</libraries>
<attributes>
</attributes>
<variantdefs>
</variantdefs>
<classes>
<class number="0" name="default" width="0" drill="0">
</class>
</classes>
<designrules name="default *">
<description language="de">&lt;b&gt;EAGLE Design Rules&lt;/b&gt;
&lt;p&gt;
Die Standard-Design-Rules sind so gewählt, dass sie für 
die meisten Anwendungen passen. Sollte ihre Platine 
besondere Anforderungen haben, treffen Sie die erforderlichen
Einstellungen hier und speichern die Design Rules unter 
einem neuen Namen ab.</description>
<description language="en">&lt;b&gt;EAGLE Design Rules&lt;/b&gt;
&lt;p&gt;
The default Design Rules have been set to cover
a wide range of applications. Your particular design
may have different requirements, so please make the
necessary adjustments and save your customized
design rules under a new name.</description>
<param name="layerSetup" value="(1*16)"/>
<param name="mtCopper" value="0.035mm 0.035mm 0.035mm 0.035mm 0.035mm 0.035mm 0.035mm 0.035mm 0.035mm 0.035mm 0.035mm 0.035mm 0.035mm 0.035mm 0.035mm 0.035mm"/>
<param name="mtIsolate" value="1.5mm 0.15mm 0.2mm 0.15mm 0.2mm 0.15mm 0.2mm 0.15mm 0.2mm 0.15mm 0.2mm 0.15mm 0.2mm 0.15mm 0.2mm"/>
<param name="mdWireWire" value="40mil"/>
<param name="mdWirePad" value="40mil"/>
<param name="mdWireVia" value="40mil"/>
<param name="mdPadPad" value="40mil"/>
<param name="mdPadVia" value="40mil"/>
<param name="mdViaVia" value="20mil"/>
<param name="mdSmdPad" value="6mil"/>
<param name="mdSmdVia" value="6mil"/>
<param name="mdSmdSmd" value="6mil"/>
<param name="mdViaViaSameLayer" value="6mil"/>
<param name="mnLayersViaInSmd" value="2"/>
<param name="mdCopperDimension" value="40mil"/>
<param name="mdDrill" value="6mil"/>
<param name="mdSmdStop" value="0mil"/>
<param name="msWidth" value="40mil"/>
<param name="msDrill" value="0.8mm"/>
<param name="msMicroVia" value="9.99mm"/>
<param name="msBlindViaRatio" value="0.5"/>
<param name="rvPadTop" value="0.25"/>
<param name="rvPadInner" value="0.25"/>
<param name="rvPadBottom" value="0.25"/>
<param name="rvViaOuter" value="0.25"/>
<param name="rvViaInner" value="0.25"/>
<param name="rvMicroViaOuter" value="0.25"/>
<param name="rvMicroViaInner" value="0.25"/>
<param name="rlMinPadTop" value="10mil"/>
<param name="rlMaxPadTop" value="20mil"/>
<param name="rlMinPadInner" value="10mil"/>
<param name="rlMaxPadInner" value="20mil"/>
<param name="rlMinPadBottom" value="10mil"/>
<param name="rlMaxPadBottom" value="20mil"/>
<param name="rlMinViaOuter" value="8mil"/>
<param name="rlMaxViaOuter" value="20mil"/>
<param name="rlMinViaInner" value="8mil"/>
<param name="rlMaxViaInner" value="20mil"/>
<param name="rlMinMicroViaOuter" value="4mil"/>
<param name="rlMaxMicroViaOuter" value="20mil"/>
<param name="rlMinMicroViaInner" value="4mil"/>
<param name="rlMaxMicroViaInner" value="20mil"/>
<param name="psTop" value="-1"/>
<param name="psBottom" value="-1"/>
<param name="psFirst" value="-1"/>
<param name="psElongationLong" value="100"/>
<param name="psElongationOffset" value="100"/>
<param name="mvStopFrame" value="1"/>
<param name="mvCreamFrame" value="0"/>
<param name="mlMinStopFrame" value="4mil"/>
<param name="mlMaxStopFrame" value="4mil"/>
<param name="mlMinCreamFrame" value="0mil"/>
<param name="mlMaxCreamFrame" value="0mil"/>
<param name="mlViaStopLimit" value="0mil"/>
<param name="srRoundness" value="0"/>
<param name="srMinRoundness" value="0mil"/>
<param name="srMaxRoundness" value="0mil"/>
<param name="slThermalIsolate" value="10mil"/>
<param name="slThermalsForVias" value="0"/>
<param name="dpMaxLengthDifference" value="10mm"/>
<param name="dpGapFactor" value="2.5"/>
<param name="checkAngle" value="0"/>
<param name="checkFont" value="1"/>
<param name="checkRestrict" value="1"/>
<param name="checkStop" value="0"/>
<param name="checkValues" value="0"/>
<param name="checkNames" value="1"/>
<param name="checkWireStubs" value="1"/>
<param name="checkPolygonWidth" value="0"/>
<param name="useDiameter" value="13"/>
<param name="maxErrors" value="50"/>
</designrules>
<autorouter>
<pass name="Default">
<param name="RoutingGrid" value="50mil"/>
<param name="AutoGrid" value="1"/>
<param name="Efforts" value="0"/>
<param name="TopRouterVariant" value="1"/>
<param name="tpViaShape" value="round"/>
<param name="PrefDir.1" value="a"/>
<param name="PrefDir.2" value="0"/>
<param name="PrefDir.3" value="0"/>
<param name="PrefDir.4" value="0"/>
<param name="PrefDir.5" value="0"/>
<param name="PrefDir.6" value="0"/>
<param name="PrefDir.7" value="0"/>
<param name="PrefDir.8" value="0"/>
<param name="PrefDir.9" value="0"/>
<param name="PrefDir.10" value="0"/>
<param name="PrefDir.11" value="0"/>
<param name="PrefDir.12" value="0"/>
<param name="PrefDir.13" value="0"/>
<param name="PrefDir.14" value="0"/>
<param name="PrefDir.15" value="0"/>
<param name="PrefDir.16" value="a"/>
<param name="cfVia" value="8"/>
<param name="cfNonPref" value="5"/>
<param name="cfChangeDir" value="2"/>
<param name="cfOrthStep" value="2"/>
<param name="cfDiagStep" value="3"/>
<param name="cfExtdStep" value="0"/>
<param name="cfBonusStep" value="1"/>
<param name="cfMalusStep" value="1"/>
<param name="cfPadImpact" value="4"/>
<param name="cfSmdImpact" value="4"/>
<param name="cfBusImpact" value="0"/>
<param name="cfHugging" value="3"/>
<param name="cfAvoid" value="4"/>
<param name="cfPolygon" value="10"/>
<param name="cfBase.1" value="0"/>
<param name="cfBase.2" value="1"/>
<param name="cfBase.3" value="1"/>
<param name="cfBase.4" value="1"/>
<param name="cfBase.5" value="1"/>
<param name="cfBase.6" value="1"/>
<param name="cfBase.7" value="1"/>
<param name="cfBase.8" value="1"/>
<param name="cfBase.9" value="1"/>
<param name="cfBase.10" value="1"/>
<param name="cfBase.11" value="1"/>
<param name="cfBase.12" value="1"/>
<param name="cfBase.13" value="1"/>
<param name="cfBase.14" value="1"/>
<param name="cfBase.15" value="1"/>
<param name="cfBase.16" value="0"/>
<param name="mnVias" value="20"/>
<param name="mnSegments" value="9999"/>
<param name="mnExtdSteps" value="9999"/>
<param name="mnRipupLevel" value="10"/>
<param name="mnRipupSteps" value="100"/>
<param name="mnRipupTotal" value="100"/>
</pass>
<pass name="Follow-me" refer="Default" active="yes">
</pass>
<pass name="Busses" refer="Default" active="yes">
<param name="cfNonPref" value="4"/>
<param name="cfBusImpact" value="4"/>
<param name="cfHugging" value="0"/>
<param name="mnVias" value="0"/>
</pass>
<pass name="Route" refer="Default" active="yes">
</pass>
<pass name="Optimize1" refer="Default" active="yes">
<param name="cfVia" value="99"/>
<param name="cfExtdStep" value="10"/>
<param name="cfHugging" value="1"/>
<param name="mnExtdSteps" value="1"/>
<param name="mnRipupLevel" value="0"/>
</pass>
<pass name="Optimize2" refer="Optimize1" active="yes">
<param name="cfNonPref" value="0"/>
<param name="cfChangeDir" value="6"/>
<param name="cfExtdStep" value="0"/>
<param name="cfBonusStep" value="2"/>
<param name="cfMalusStep" value="2"/>
<param name="cfPadImpact" value="2"/>
<param name="cfSmdImpact" value="2"/>
<param name="cfHugging" value="0"/>
</pass>
<pass name="Optimize3" refer="Optimize2" active="yes">
<param name="cfChangeDir" value="8"/>
<param name="cfPadImpact" value="0"/>
<param name="cfSmdImpact" value="0"/>
</pass>
<pass name="Optimize4" refer="Optimize3" active="yes">
<param name="cfChangeDir" value="25"/>
</pass>
</autorouter>
<elements>
<element name="C1" library="capacitor-wima" library_urn="urn:adsk.eagle:library:116" package="C5B2.5" package3d_urn="urn:adsk.eagle:package:5426/1" value="0.1uF" x="74.295" y="62.23" smashed="yes" rot="R180">
<attribute name="NAME" x="76.327" y="60.706" size="1.27" layer="25" ratio="10" rot="R180"/>
<attribute name="VALUE" x="75.057" y="66.294" size="1.27" layer="27" ratio="10" rot="R180"/>
</element>
<element name="C2" library="capacitor-wima" library_urn="urn:adsk.eagle:library:116" package="C5B2.5" package3d_urn="urn:adsk.eagle:package:5426/1" value="0.1uF" x="76.835" y="52.07" smashed="yes" rot="R270">
<attribute name="NAME" x="78.359" y="54.102" size="1.27" layer="25" ratio="10" rot="R270"/>
<attribute name="VALUE" x="74.041" y="54.102" size="1.27" layer="27" ratio="10" rot="R270"/>
</element>
<element name="C3" library="capacitor-wima" library_urn="urn:adsk.eagle:library:116" package="C5B2.5" package3d_urn="urn:adsk.eagle:package:5426/1" value="0.1uF" x="72.39" y="67.31" smashed="yes" rot="R180">
<attribute name="NAME" x="73.152" y="70.231" size="1.27" layer="25" ratio="10" rot="R180"/>
<attribute name="VALUE" x="74.422" y="70.104" size="1.27" layer="27" ratio="10" rot="R180"/>
</element>
<element name="C4" library="capacitor-wima" library_urn="urn:adsk.eagle:library:116" package="C5B2.5" package3d_urn="urn:adsk.eagle:package:5426/1" value="0.1uF" x="53.34" y="68.58" smashed="yes" rot="R90">
<attribute name="NAME" x="53.721" y="62.103" size="1.27" layer="25" ratio="10" rot="R90"/>
<attribute name="VALUE" x="56.134" y="66.548" size="1.27" layer="27" ratio="10" rot="R90"/>
</element>
<element name="C5" library="capacitor-wima" library_urn="urn:adsk.eagle:library:116" package="C5B2.5" package3d_urn="urn:adsk.eagle:package:5426/1" value="0.1uF" x="52.705" y="43.18" smashed="yes" rot="R180">
<attribute name="NAME" x="58.547" y="45.466" size="1.27" layer="25" ratio="10" rot="R180"/>
<attribute name="VALUE" x="54.737" y="45.974" size="1.27" layer="27" ratio="10" rot="R180"/>
</element>
<element name="C6" library="capacitor-wima" library_urn="urn:adsk.eagle:library:116" package="C5B2.5" package3d_urn="urn:adsk.eagle:package:5426/1" value="0.1uF" x="52.705" y="39.37" smashed="yes" rot="R180">
<attribute name="NAME" x="58.547" y="41.656" size="1.27" layer="25" ratio="10" rot="R180"/>
<attribute name="VALUE" x="54.737" y="42.164" size="1.27" layer="27" ratio="10" rot="R180"/>
</element>
<element name="C7" library="capacitor-wima" library_urn="urn:adsk.eagle:library:116" package="C5B2.5" package3d_urn="urn:adsk.eagle:package:5426/1" value="0.1uF" x="68.58" y="16.51" smashed="yes" rot="R90">
<attribute name="NAME" x="67.056" y="14.478" size="1.27" layer="25" ratio="10" rot="R90"/>
<attribute name="VALUE" x="71.374" y="14.478" size="1.27" layer="27" ratio="10" rot="R90"/>
</element>
<element name="D1" library="diode" library_urn="urn:adsk.eagle:library:210" package="DO35-10" package3d_urn="urn:adsk.eagle:package:43344/2" value="BA221" x="60.325" y="68.58" smashed="yes" rot="R180">
<attribute name="NAME" x="62.484" y="67.31" size="1.27" layer="25" ratio="10" rot="R180"/>
<attribute name="VALUE" x="62.484" y="71.247" size="1.27" layer="27" ratio="10" rot="R180"/>
</element>
<element name="D2" library="diode" library_urn="urn:adsk.eagle:library:210" package="DO35-10" package3d_urn="urn:adsk.eagle:package:43344/2" value="BA221" x="63.5" y="41.91" smashed="yes">
<attribute name="NAME" x="61.341" y="43.18" size="1.27" layer="25" ratio="10"/>
<attribute name="VALUE" x="67.691" y="41.783" size="1.27" layer="27" ratio="10"/>
</element>
<element name="Q1" library="transistor-power" library_urn="urn:adsk.eagle:library:400" package="TO220BV" package3d_urn="urn:adsk.eagle:package:29484/3" value="IRF9530" x="63.5" y="60.96" smashed="yes">
<attribute name="NAME" x="68.58" y="57.4548" size="1.27" layer="25" ratio="10"/>
<attribute name="VALUE" x="58.42" y="53.34" size="1.27" layer="27" ratio="10"/>
</element>
<element name="Q2" library="transistor-power" library_urn="urn:adsk.eagle:library:400" package="TO220BV" package3d_urn="urn:adsk.eagle:package:29484/3" value="IRFZ24NPBF" x="63.5" y="55.88" smashed="yes">
<attribute name="NAME" x="66.675" y="49.8348" size="1.27" layer="25" ratio="10"/>
<attribute name="VALUE" x="59.69" y="48.26" size="1.27" layer="27" ratio="10"/>
</element>
<element name="Q3" library="transistor-power" library_urn="urn:adsk.eagle:library:400" package="TO220BV" package3d_urn="urn:adsk.eagle:package:29484/3" value="IRF9530" x="63.5" y="38.1" smashed="yes">
<attribute name="NAME" x="68.58" y="33.3248" size="1.27" layer="25" ratio="10"/>
<attribute name="VALUE" x="58.42" y="30.48" size="1.27" layer="27" ratio="10"/>
</element>
<element name="Q4" library="transistor-power" library_urn="urn:adsk.eagle:library:400" package="TO220BV" package3d_urn="urn:adsk.eagle:package:29484/3" value="IRFZ24NPBF" x="63.5" y="33.02" smashed="yes">
<attribute name="NAME" x="68.58" y="30.1498" size="1.27" layer="25" ratio="10"/>
<attribute name="VALUE" x="58.42" y="25.4" size="1.27" layer="27" ratio="10"/>
</element>
<element name="Q5" library="transistor-power" library_urn="urn:adsk.eagle:library:400" package="TO220BV" package3d_urn="urn:adsk.eagle:package:29484/3" value="IRF9530" x="74.93" y="26.67" smashed="yes">
<attribute name="NAME" x="77.47" y="20.6248" size="1.27" layer="25" ratio="10"/>
<attribute name="VALUE" x="69.85" y="19.05" size="1.27" layer="27" ratio="10"/>
</element>
<element name="R1" library="rcl" library_urn="urn:adsk.eagle:library:334" package="0204V" package3d_urn="urn:adsk.eagle:package:23495/1" value="10K" x="81.915" y="60.96" smashed="yes" rot="R90">
<attribute name="NAME" x="83.9216" y="60.0964" size="1.27" layer="25" ratio="10" rot="R90"/>
<attribute name="SPICEPREFIX" value="R" x="126.365" y="111.76" size="1.778" layer="27" rot="R90" display="off"/>
<attribute name="VALUE" x="85.4964" y="58.8264" size="1.27" layer="27" ratio="10" rot="R90"/>
</element>
<element name="R10" library="rcl" library_urn="urn:adsk.eagle:library:334" package="0204V" package3d_urn="urn:adsk.eagle:package:23495/1" value="1K" x="59.69" y="21.59" smashed="yes">
<attribute name="NAME" x="53.7464" y="20.8534" size="1.27" layer="25" ratio="10"/>
<attribute name="SPICEPREFIX" value="R" x="110.49" y="-30.48" size="1.778" layer="27" display="off"/>
<attribute name="VALUE" x="57.5564" y="19.2786" size="1.27" layer="27" ratio="10"/>
</element>
<element name="R11" library="rcl" library_urn="urn:adsk.eagle:library:334" package="0207/10" package3d_urn="urn:adsk.eagle:package:23491/2" value="10K" x="50.165" y="36.83" smashed="yes">
<attribute name="NAME" x="49.022" y="34.544" size="1.27" layer="25" ratio="10"/>
<attribute name="SPICEPREFIX" value="R" x="74.295" y="-26.67" size="1.778" layer="27" display="off"/>
<attribute name="VALUE" x="47.9044" y="36.195" size="1.27" layer="27" ratio="10"/>
</element>
<element name="R12" library="rcl" library_urn="urn:adsk.eagle:library:334" package="0204V" package3d_urn="urn:adsk.eagle:package:23495/1" value="1K" x="54.61" y="15.24" smashed="yes">
<attribute name="NAME" x="52.4764" y="16.4084" size="1.27" layer="25" ratio="10"/>
<attribute name="SPICEPREFIX" value="R" x="110.49" y="-36.83" size="1.778" layer="27" display="off"/>
<attribute name="VALUE" x="52.4764" y="12.9286" size="1.27" layer="27" ratio="10"/>
</element>
<element name="R13" library="rcl" library_urn="urn:adsk.eagle:library:334" package="0204V" package3d_urn="urn:adsk.eagle:package:23495/1" value="1K" x="59.69" y="62.23" smashed="yes">
<attribute name="NAME" x="57.5564" y="63.3984" size="1.27" layer="25" ratio="10"/>
<attribute name="SPICEPREFIX" value="R" x="74.93" y="3.81" size="1.778" layer="27" display="off"/>
<attribute name="VALUE" x="57.5564" y="59.9186" size="1.27" layer="27" ratio="10"/>
</element>
<element name="R14" library="rcl" library_urn="urn:adsk.eagle:library:334" package="0204V" package3d_urn="urn:adsk.eagle:package:23495/1" value="10K" x="64.77" y="62.23" smashed="yes">
<attribute name="NAME" x="62.6364" y="63.3984" size="1.27" layer="25" ratio="10"/>
<attribute name="SPICEPREFIX" value="R" x="85.09" y="3.81" size="1.778" layer="27" display="off"/>
<attribute name="VALUE" x="62.6364" y="59.9186" size="1.27" layer="27" ratio="10"/>
</element>
<element name="R15" library="rcl" library_urn="urn:adsk.eagle:library:334" package="0204V" package3d_urn="urn:adsk.eagle:package:23495/1" value="1K" x="57.15" y="53.34" smashed="yes" rot="R90">
<attribute name="NAME" x="55.9816" y="51.2064" size="1.27" layer="25" ratio="10" rot="R90"/>
<attribute name="SPICEPREFIX" value="R" x="115.57" y="78.74" size="1.778" layer="27" rot="R90" display="off"/>
<attribute name="VALUE" x="59.4614" y="51.2064" size="1.27" layer="27" ratio="10" rot="R90"/>
</element>
<element name="R16" library="rcl" library_urn="urn:adsk.eagle:library:334" package="0207/10" package3d_urn="urn:adsk.eagle:package:23491/2" value="10K" x="60.96" y="49.53" smashed="yes" rot="R180">
<attribute name="NAME" x="63.0936" y="48.3616" size="1.27" layer="25" ratio="10" rot="R180"/>
<attribute name="SPICEPREFIX" value="R" x="30.48" y="107.95" size="1.778" layer="27" rot="R180" display="off"/>
<attribute name="VALUE" x="63.0936" y="51.8414" size="1.27" layer="27" ratio="10" rot="R180"/>
</element>
<element name="R17" library="rcl" library_urn="urn:adsk.eagle:library:334" package="0204V" package3d_urn="urn:adsk.eagle:package:23495/1" value="1K" x="57.15" y="35.56" smashed="yes" rot="R90">
<attribute name="NAME" x="55.9816" y="33.4264" size="1.27" layer="25" ratio="10" rot="R90"/>
<attribute name="SPICEPREFIX" value="R" x="115.57" y="71.12" size="1.778" layer="27" rot="R90" display="off"/>
<attribute name="VALUE" x="59.4614" y="33.4264" size="1.27" layer="27" ratio="10" rot="R90"/>
</element>
<element name="R18" library="rcl" library_urn="urn:adsk.eagle:library:334" package="0207/10" package3d_urn="urn:adsk.eagle:package:23491/2" value="10K" x="62.23" y="39.37" smashed="yes" rot="R180">
<attribute name="NAME" x="69.4436" y="40.7416" size="1.27" layer="25" ratio="10" rot="R180"/>
<attribute name="SPICEPREFIX" value="R" x="21.59" y="97.79" size="1.778" layer="27" rot="R180" display="off"/>
<attribute name="VALUE" x="64.3636" y="41.6814" size="1.27" layer="27" ratio="10" rot="R180"/>
</element>
<element name="R19" library="rcl" library_urn="urn:adsk.eagle:library:334" package="0204V" package3d_urn="urn:adsk.eagle:package:23495/1" value="1K" x="59.69" y="26.67" smashed="yes">
<attribute name="NAME" x="53.7464" y="26.5684" size="1.27" layer="25" ratio="10"/>
<attribute name="SPICEPREFIX" value="R" x="105.41" y="-31.75" size="1.778" layer="27" display="off"/>
<attribute name="VALUE" x="57.5564" y="24.3586" size="1.27" layer="27" ratio="10"/>
</element>
<element name="R2" library="rcl" library_urn="urn:adsk.eagle:library:334" package="0204V" package3d_urn="urn:adsk.eagle:package:23495/1" value="10K" x="79.375" y="58.42" smashed="yes" rot="R90">
<attribute name="NAME" x="78.8416" y="58.1914" size="1.27" layer="25" ratio="10" rot="R90"/>
<attribute name="SPICEPREFIX" value="R" x="123.825" y="114.3" size="1.778" layer="27" rot="R90" display="off"/>
<attribute name="VALUE" x="81.6864" y="56.2864" size="1.27" layer="27" ratio="10" rot="R90"/>
</element>
<element name="R20" library="rcl" library_urn="urn:adsk.eagle:library:334" package="0204V" package3d_urn="urn:adsk.eagle:package:23495/1" value="10K" x="64.77" y="26.67" smashed="yes">
<attribute name="NAME" x="64.5414" y="27.2034" size="1.27" layer="25" ratio="10"/>
<attribute name="SPICEPREFIX" value="R" x="115.57" y="-31.75" size="1.778" layer="27" display="off"/>
<attribute name="VALUE" x="62.6364" y="24.3586" size="1.27" layer="27" ratio="10"/>
</element>
<element name="R21" library="rcl" library_urn="urn:adsk.eagle:library:334" package="0207/10" package3d_urn="urn:adsk.eagle:package:23491/2" value="1K" x="63.5" y="24.13" smashed="yes" rot="R180">
<attribute name="NAME" x="69.4436" y="26.1366" size="1.27" layer="25" ratio="10" rot="R180"/>
<attribute name="SPICEPREFIX" value="R" x="7.62" y="82.55" size="1.778" layer="27" rot="R180" display="off"/>
<attribute name="VALUE" x="65.6336" y="26.4414" size="1.27" layer="27" ratio="10" rot="R180"/>
</element>
<element name="R22" library="rcl" library_urn="urn:adsk.eagle:library:334" package="0207/10" package3d_urn="urn:adsk.eagle:package:23491/2" value="10K" x="73.66" y="27.94" smashed="yes">
<attribute name="NAME" x="71.5264" y="29.1084" size="1.27" layer="25" ratio="10"/>
<attribute name="SPICEPREFIX" value="R" x="88.9" y="-36.83" size="1.778" layer="27" display="off"/>
<attribute name="VALUE" x="71.5264" y="25.6286" size="1.27" layer="27" ratio="10"/>
</element>
<element name="R3" library="rcl" library_urn="urn:adsk.eagle:library:334" package="0204V" package3d_urn="urn:adsk.eagle:package:23495/1" value="1K" x="76.835" y="58.42" smashed="yes" rot="R90">
<attribute name="NAME" x="75.6666" y="56.2864" size="1.27" layer="25" ratio="10" rot="R90"/>
<attribute name="SPICEPREFIX" value="R" x="128.905" y="73.66" size="1.778" layer="27" rot="R90" display="off"/>
<attribute name="VALUE" x="79.1464" y="56.2864" size="1.27" layer="27" ratio="10" rot="R90"/>
</element>
<element name="R4" library="rcl" library_urn="urn:adsk.eagle:library:334" package="0204V" package3d_urn="urn:adsk.eagle:package:23495/1" value="10K" x="81.28" y="67.31" smashed="yes">
<attribute name="NAME" x="82.9564" y="66.5734" size="1.27" layer="25" ratio="10"/>
<attribute name="SPICEPREFIX" value="R" x="101.6" y="15.24" size="1.778" layer="27" display="off"/>
<attribute name="VALUE" x="79.1464" y="64.9986" size="1.27" layer="27" ratio="10"/>
</element>
<element name="R5" library="rcl" library_urn="urn:adsk.eagle:library:334" package="0204V" package3d_urn="urn:adsk.eagle:package:23495/1" value="10K" x="81.28" y="69.215" smashed="yes">
<attribute name="NAME" x="82.9564" y="68.4784" size="1.27" layer="25" ratio="10"/>
<attribute name="SPICEPREFIX" value="R" x="106.68" y="17.145" size="1.778" layer="27" display="off"/>
<attribute name="VALUE" x="79.1464" y="66.9036" size="1.27" layer="27" ratio="10"/>
</element>
<element name="R6" library="rcl" library_urn="urn:adsk.eagle:library:334" package="0207/10" package3d_urn="urn:adsk.eagle:package:23491/2" value="1K" x="77.47" y="64.77" smashed="yes" rot="R180">
<attribute name="NAME" x="80.8736" y="63.6016" size="1.27" layer="25" ratio="10" rot="R180"/>
<attribute name="SPICEPREFIX" value="R" x="46.99" y="116.84" size="1.778" layer="27" rot="R180" display="off"/>
<attribute name="VALUE" x="79.6036" y="67.0814" size="1.27" layer="27" ratio="10" rot="R180"/>
</element>
<element name="R7" library="rcl" library_urn="urn:adsk.eagle:library:334" package="0207/10" package3d_urn="urn:adsk.eagle:package:23491/2" value="10K" x="60.96" y="19.05" smashed="yes" rot="R180">
<attribute name="NAME" x="63.0936" y="17.8816" size="1.27" layer="25" ratio="10" rot="R180"/>
<attribute name="SPICEPREFIX" value="R" x="25.4" y="71.12" size="1.778" layer="27" rot="R180" display="off"/>
<attribute name="VALUE" x="63.0936" y="21.3614" size="1.27" layer="27" ratio="10" rot="R180"/>
</element>
<element name="R8" library="rcl" library_urn="urn:adsk.eagle:library:334" package="0204V" package3d_urn="urn:adsk.eagle:package:23495/1" value="1K" x="48.26" y="41.91" smashed="yes" rot="R90">
<attribute name="NAME" x="47.0916" y="40.4114" size="1.27" layer="25" ratio="10" rot="R90"/>
<attribute name="SPICEPREFIX" value="R" x="100.33" y="82.55" size="1.778" layer="27" rot="R90" display="off"/>
<attribute name="VALUE" x="50.5714" y="39.7764" size="1.27" layer="27" ratio="10" rot="R90"/>
</element>
<element name="R9" library="rcl" library_urn="urn:adsk.eagle:library:334" package="0204V" package3d_urn="urn:adsk.eagle:package:23495/1" value="10K" x="64.77" y="21.59" smashed="yes">
<attribute name="NAME" x="66.4464" y="20.8534" size="1.27" layer="25" ratio="10"/>
<attribute name="SPICEPREFIX" value="R" x="110.49" y="-30.48" size="1.778" layer="27" display="off"/>
<attribute name="VALUE" x="62.6364" y="19.2786" size="1.27" layer="27" ratio="10"/>
</element>
<element name="DS1" library="digispark" package="DIGISPARKPRO" value="DIGISPARKPRO" x="41.91" y="58.42" smashed="yes">
<attribute name="NAME" x="36.195" y="69.215" size="1.27" layer="25" rot="R180" align="bottom-right"/>
</element>
<element name="CONN" library="connector" package="1X10-2.5MM" value="BN743119" x="83.82" y="39.37" smashed="yes">
<attribute name="NAME" x="88.82" y="41.87" size="1.27" layer="25" rot="R270"/>
</element>
<element name="LED1" library="led" library_urn="urn:adsk.eagle:library:259" package="LED5MM" package3d_urn="urn:adsk.eagle:package:15799/2" value="" x="34.29" y="35.56" smashed="yes" rot="R270">
<attribute name="NAME" x="31.75" y="31.0134" size="1.27" layer="25" ratio="10"/>
<attribute name="VALUE" x="32.4866" y="32.3596" size="1.27" layer="27" ratio="10" rot="R270"/>
</element>
<element name="R23" library="rcl" library_urn="urn:adsk.eagle:library:334" package="0207/10" package3d_urn="urn:adsk.eagle:package:23491/2" value="100" x="38.1" y="40.64" smashed="yes">
<attribute name="NAME" x="35.052" y="42.164" size="1.27" layer="25" ratio="10"/>
<attribute name="SPICEPREFIX" value="R" x="38.1" y="40.64" size="1.778" layer="27" display="off"/>
<attribute name="VALUE" x="35.8394" y="40.005" size="1.27" layer="27" ratio="10"/>
</element>
</elements>
<signals>
<signal name="N$1">
<contactref element="R3" pad="2"/>
<contactref element="R1" pad="1"/>
<contactref element="R2" pad="2"/>
<wire x1="76.835" y1="59.69" x2="79.375" y2="59.69" width="1.016" layer="16"/>
<wire x1="79.375" y1="59.69" x2="81.915" y2="59.69" width="1.016" layer="16"/>
<wire x1="83.82" y1="57.785" x2="81.915" y2="59.69" width="1.016" layer="16"/>
<contactref element="CONN" pad="P$10"/>
<wire x1="83.82" y1="51.87" x2="83.82" y2="57.785" width="1.016" layer="16"/>
</signal>
<signal name="5V">
<contactref element="R1" pad="2"/>
<contactref element="C1" pad="1"/>
<contactref element="R4" pad="1"/>
<contactref element="C3" pad="1"/>
<contactref element="D1" pad="C"/>
<wire x1="81.915" y1="62.23" x2="76.835" y2="62.23" width="1.016" layer="16"/>
<wire x1="65.405" y1="68.58" x2="66.04" y2="69.215" width="1.016" layer="16"/>
<wire x1="66.04" y1="69.215" x2="73.025" y2="69.215" width="1.016" layer="16"/>
<wire x1="73.025" y1="69.215" x2="74.93" y2="67.31" width="1.016" layer="16"/>
<wire x1="74.93" y1="67.31" x2="76.835" y2="65.405" width="1.016" layer="16"/>
<wire x1="76.835" y1="65.405" x2="76.835" y2="62.23" width="1.016" layer="16"/>
<wire x1="74.93" y1="67.31" x2="80.01" y2="67.31" width="1.016" layer="16"/>
</signal>
<signal name="GND">
<contactref element="R2" pad="1"/>
<contactref element="C2" pad="2"/>
<contactref element="C4" pad="2"/>
<contactref element="R7" pad="1"/>
<contactref element="R9" pad="2"/>
<contactref element="C7" pad="2"/>
<contactref element="Q4" pad="S"/>
<contactref element="R16" pad="1"/>
<contactref element="Q2" pad="S"/>
<wire x1="66.04" y1="53.34" x2="66.04" y2="49.53" width="1.016" layer="16"/>
<wire x1="66.04" y1="21.59" x2="66.04" y2="19.05" width="1.016" layer="16"/>
<wire x1="67.945" y1="71.12" x2="53.34" y2="71.12" width="1.016" layer="16"/>
<wire x1="53.34" y1="71.12" x2="33.02" y2="71.12" width="1.016" layer="16"/>
<wire x1="33.02" y1="71.12" x2="31.75" y2="69.85" width="1.016" layer="16"/>
<wire x1="78.19" y1="33.02" x2="73.66" y2="33.02" width="2.032" layer="16"/>
<wire x1="73.66" y1="33.02" x2="68.58" y2="33.02" width="2.032" layer="16"/>
<wire x1="68.58" y1="33.02" x2="66.04" y2="30.48" width="2.032" layer="16"/>
<wire x1="73.66" y1="33.02" x2="73.66" y2="52.07" width="2.032" layer="1"/>
<wire x1="73.66" y1="52.07" x2="67.31" y2="52.07" width="2.032" layer="16"/>
<wire x1="67.31" y1="52.07" x2="66.04" y2="53.34" width="2.032" layer="16"/>
<wire x1="67.945" y1="71.12" x2="67.945" y2="62.23" width="1.016" layer="1"/>
<wire x1="73.66" y1="52.07" x2="76.835" y2="52.07" width="1.016" layer="16"/>
<wire x1="76.835" y1="52.07" x2="79.375" y2="54.61" width="1.016" layer="16"/>
<wire x1="79.375" y1="54.61" x2="79.375" y2="57.15" width="1.016" layer="16"/>
<wire x1="76.835" y1="49.53" x2="76.835" y2="52.07" width="1.016" layer="16"/>
<wire x1="78.105" y1="71.12" x2="67.945" y2="71.12" width="1.016" layer="16"/>
<wire x1="67.945" y1="62.23" x2="73.66" y2="56.515" width="1.016" layer="16"/>
<wire x1="73.66" y1="56.515" x2="73.66" y2="52.07" width="1.016" layer="16"/>
<via x="73.66" y="33.02" extent="1-16" drill="1" diameter="1.778"/>
<via x="73.66" y="52.07" extent="1-16" drill="1" diameter="1.778"/>
<via x="67.945" y="71.12" extent="1-16" drill="1" diameter="1.778"/>
<via x="67.945" y="62.23" extent="1-16" drill="1" diameter="1.778"/>
<contactref element="R5" pad="1"/>
<wire x1="80.01" y1="69.215" x2="78.105" y2="71.12" width="1.016" layer="16"/>
<contactref element="R20" pad="2"/>
<wire x1="66.04" y1="26.67" x2="66.04" y2="30.48" width="1.016" layer="16"/>
<contactref element="DS1" pad="GND0"/>
<contactref element="CONN" pad="P$4"/>
<wire x1="66.04" y1="19.05" x2="68.58" y2="19.05" width="1.016" layer="16"/>
<polygon width="1.016" layer="16" spacing="1.016">
<vertex x="27.94" y="74.93"/>
<vertex x="95.25" y="74.93"/>
<vertex x="95.25" y="8.89"/>
<vertex x="27.94" y="8.89"/>
</polygon>
<wire x1="83.82" y1="36.87" x2="82.04" y2="36.87" width="2.032" layer="16"/>
<wire x1="82.04" y1="36.87" x2="78.19" y2="33.02" width="2.032" layer="16"/>
<contactref element="LED1" pad="K"/>
<wire x1="31.75" y1="69.85" x2="31.75" y2="69.73986875" width="1.016" layer="16"/>
<wire x1="31.75" y1="69.73986875" x2="31.6738" y2="69.66366875" width="1.016" layer="16"/>
<wire x1="31.6738" y1="69.66366875" x2="31.6738" y2="50.8" width="1.016" layer="16"/>
<wire x1="34.29" y1="50.8" x2="31.6738" y2="50.8" width="1.016" layer="16"/>
<wire x1="66.04" y1="26.67" x2="66.04" y2="21.59" width="1.016" layer="16"/>
<wire x1="34.29" y1="34.29" x2="33.655" y2="34.29" width="1.016" layer="16"/>
<wire x1="33.655" y1="34.29" x2="30.734" y2="37.211" width="1.016" layer="16"/>
<wire x1="30.734" y1="49.8602" x2="31.6738" y2="50.8" width="1.016" layer="16"/>
<wire x1="30.734" y1="37.211" x2="30.734" y2="49.8602" width="1.016" layer="16"/>
</signal>
<signal name="N$4">
<contactref element="D1" pad="A"/>
<contactref element="DS1" pad="VCC/5V0"/>
<wire x1="49.53" y1="68.58" x2="55.245" y2="68.58" width="1.016" layer="16"/>
</signal>
<signal name="N$5">
<contactref element="R6" pad="1"/>
<contactref element="R4" pad="2"/>
<wire x1="82.55" y1="64.77" x2="82.55" y2="67.31" width="1.016" layer="16"/>
<contactref element="R5" pad="2"/>
<wire x1="82.55" y1="69.215" x2="82.55" y2="67.31" width="1.016" layer="16"/>
<contactref element="CONN" pad="P$8"/>
<wire x1="86.36" y1="48.14" x2="85.09" y2="46.87" width="1.016" layer="16"/>
<wire x1="83.82" y1="46.87" x2="85.09" y2="46.87" width="1.016" layer="16"/>
<wire x1="86.36" y1="48.14" x2="86.36" y2="60.96" width="1.016" layer="16"/>
<wire x1="86.36" y1="60.96" x2="82.55" y2="64.77" width="1.016" layer="16"/>
</signal>
<signal name="N$7">
<contactref element="C4" pad="1"/>
<contactref element="R6" pad="2"/>
<contactref element="C3" pad="2"/>
<wire x1="53.34" y1="66.04" x2="69.85" y2="66.04" width="1.016" layer="16"/>
<wire x1="69.85" y1="66.04" x2="71.12" y2="66.04" width="1.016" layer="16"/>
<wire x1="72.39" y1="64.77" x2="71.12" y2="66.04" width="1.016" layer="16"/>
<wire x1="69.85" y1="67.31" x2="69.85" y2="66.04" width="1.016" layer="16"/>
<contactref element="DS1" pad="PA0/6/A6/RX"/>
<wire x1="49.53" y1="66.04" x2="53.34" y2="66.04" width="1.016" layer="16"/>
</signal>
<signal name="N$6">
<contactref element="C2" pad="1"/>
<contactref element="C1" pad="2"/>
<contactref element="R3" pad="1"/>
<wire x1="54.01210625" y1="63.5" x2="54.69790625" y2="64.1858" width="1.016" layer="16"/>
<wire x1="71.755" y1="62.23" x2="69.7992" y2="64.1858" width="1.016" layer="16"/>
<wire x1="69.7992" y1="64.1858" x2="54.69790625" y2="64.1858" width="1.016" layer="16"/>
<wire x1="76.835" y1="57.15" x2="76.835" y2="54.61" width="1.016" layer="16"/>
<wire x1="76.835" y1="57.15" x2="71.755" y2="62.23" width="1.016" layer="16"/>
<contactref element="DS1" pad="PA1/7/A7/TX"/>
<wire x1="49.53" y1="63.5" x2="54.01210625" y2="63.5" width="1.016" layer="16"/>
</signal>
<signal name="N$8">
<contactref element="C5" pad="2"/>
<wire x1="42.545" y1="43.18" x2="42.545" y2="59.055" width="1.016" layer="16"/>
<wire x1="35.56" y1="66.04" x2="42.545" y2="59.055" width="1.016" layer="16"/>
<via x="42.545" y="43.18" extent="1-16" drill="1" diameter="1.778"/>
<wire x1="42.545" y1="43.18" x2="46.355" y2="43.18" width="1.016" layer="1"/>
<via x="46.355" y="43.18" extent="1-16" drill="1" diameter="1.778"/>
<contactref element="R8" pad="2"/>
<wire x1="46.355" y1="43.18" x2="48.26" y2="43.18" width="1.016" layer="16"/>
<wire x1="48.26" y1="43.18" x2="50.165" y2="43.18" width="1.016" layer="16"/>
<contactref element="DS1" pad="PB0/0/0-A/SDA"/>
<wire x1="34.29" y1="66.04" x2="35.56" y2="66.04" width="1.016" layer="16"/>
</signal>
<signal name="N$14">
<contactref element="C6" pad="2"/>
<wire x1="50.165" y1="39.37" x2="50.165" y2="33.02" width="1.016" layer="16"/>
<wire x1="50.165" y1="33.02" x2="50.165" y2="26.035" width="1.016" layer="16"/>
<wire x1="54.61" y1="21.59" x2="50.165" y2="26.035" width="1.016" layer="16"/>
<wire x1="50.165" y1="33.02" x2="39.37" y2="33.02" width="1.016" layer="1"/>
<wire x1="35.56" y1="60.96" x2="38.735" y2="57.785" width="1.016" layer="16"/>
<wire x1="39.37" y1="33.02" x2="38.735" y2="33.655" width="1.016" layer="16"/>
<wire x1="38.735" y1="33.655" x2="38.735" y2="57.785" width="1.016" layer="16"/>
<via x="50.165" y="33.02" extent="1-16" drill="1" diameter="1.778"/>
<via x="39.37" y="33.02" extent="1-16" drill="1" diameter="1.778"/>
<contactref element="R10" pad="1"/>
<wire x1="58.42" y1="21.59" x2="54.61" y2="21.59" width="1.016" layer="16"/>
<contactref element="DS1" pad="PB2/2/2-A/SCL"/>
<wire x1="34.29" y1="60.96" x2="35.56" y2="60.96" width="1.016" layer="16"/>
</signal>
<signal name="N$9">
<contactref element="C7" pad="1"/>
<wire x1="50.8" y1="20.32" x2="40.64" y2="20.32" width="1.016" layer="1"/>
<wire x1="36.83" y1="53.34" x2="36.83" y2="24.13" width="1.016" layer="16"/>
<wire x1="36.83" y1="24.13" x2="40.64" y2="20.32" width="1.016" layer="16"/>
<wire x1="68.58" y1="13.97" x2="57.15" y2="13.97" width="1.016" layer="16"/>
<via x="50.8" y="20.32" extent="1-16" drill="1" diameter="1.778"/>
<via x="40.64" y="20.32" extent="1-16" drill="1" diameter="1.778"/>
<contactref element="R12" pad="2"/>
<wire x1="57.15" y1="13.97" x2="55.88" y2="15.24" width="1.016" layer="16"/>
<wire x1="50.8" y1="20.32" x2="55.88" y2="15.24" width="1.016" layer="16"/>
<contactref element="DS1" pad="PA7/5/A5"/>
<wire x1="34.29" y1="53.34" x2="36.83" y2="53.34" width="1.016" layer="16"/>
</signal>
<signal name="N$16">
<contactref element="R21" pad="2"/>
<wire x1="48.26" y1="50.8" x2="44.45" y2="46.99" width="1.016" layer="16"/>
<via x="43.18" y="24.13" extent="1-16" drill="1" diameter="1.778"/>
<wire x1="58.42" y1="24.13" x2="55.88" y2="24.13" width="1.016" layer="16"/>
<via x="55.88" y="24.13" extent="1-16" drill="1" diameter="1.778"/>
<wire x1="55.88" y1="24.13" x2="43.18" y2="24.13" width="1.016" layer="1"/>
<contactref element="DS1" pad="PA6/12/A12/SS"/>
<wire x1="49.53" y1="50.8" x2="48.26" y2="50.8" width="1.016" layer="16"/>
<wire x1="44.45" y1="46.99" x2="44.45" y2="41.91" width="1.016" layer="16"/>
<wire x1="44.45" y1="41.91" x2="45.085" y2="41.275" width="1.016" layer="16"/>
<wire x1="45.085" y1="41.275" x2="45.085" y2="40.005" width="1.016" layer="16"/>
<wire x1="43.18" y1="38.1" x2="45.085" y2="40.005" width="1.016" layer="16"/>
<wire x1="43.18" y1="24.13" x2="43.18" y2="38.1" width="1.016" layer="16"/>
</signal>
<signal name="N$17">
<contactref element="R19" pad="1"/>
<wire x1="50.8" y1="53.34" x2="52.07" y2="52.07" width="1.016" layer="16"/>
<wire x1="58.42" y1="26.67" x2="52.07" y2="33.02" width="1.016" layer="16"/>
<wire x1="52.07" y1="33.02" x2="52.07" y2="52.07" width="1.016" layer="16"/>
<contactref element="DS1" pad="PA5/11/A11/SCK"/>
<wire x1="49.53" y1="53.34" x2="50.8" y2="53.34" width="1.016" layer="16"/>
</signal>
<signal name="N$18">
<contactref element="R19" pad="2"/>
<contactref element="Q4" pad="G"/>
<wire x1="60.96" y1="30.48" x2="60.96" y2="26.67" width="1.016" layer="16"/>
<contactref element="R20" pad="1"/>
<wire x1="60.96" y1="26.67" x2="63.5" y2="26.67" width="1.016" layer="16"/>
</signal>
<signal name="MIRROR1_OUT">
<contactref element="Q4" pad="D"/>
<contactref element="Q3" pad="D"/>
<wire x1="63.5" y1="41.91" x2="63.5" y2="35.56" width="2.032" layer="16"/>
<wire x1="63.5" y1="35.56" x2="63.5" y2="30.48" width="2.032" layer="16"/>
<wire x1="65.96" y1="44.37" x2="63.5" y2="41.91" width="2.032" layer="16"/>
<contactref element="CONN" pad="P$7"/>
<wire x1="83.82" y1="44.37" x2="65.96" y2="44.37" width="2.032" layer="16"/>
</signal>
<signal name="N$20">
<contactref element="Q3" pad="G"/>
<contactref element="R18" pad="2"/>
<contactref element="R17" pad="2"/>
<wire x1="57.15" y1="39.37" x2="57.15" y2="36.83" width="1.016" layer="16"/>
<wire x1="57.15" y1="36.83" x2="58.42" y2="35.56" width="1.016" layer="16"/>
<wire x1="58.42" y1="35.56" x2="60.96" y2="35.56" width="1.016" layer="16"/>
</signal>
<signal name="N$21">
<contactref element="R17" pad="1"/>
<contactref element="DS1" pad="PA4/10/A10/MOSI"/>
<wire x1="49.53" y1="55.88" x2="50.8" y2="55.88" width="1.016" layer="16"/>
<wire x1="53.34" y1="53.34" x2="50.8" y2="55.88" width="1.016" layer="16"/>
<wire x1="57.15" y1="34.29" x2="55.245" y2="34.29" width="1.016" layer="16"/>
<wire x1="55.245" y1="34.29" x2="53.34" y2="36.195" width="1.016" layer="16"/>
<wire x1="53.34" y1="36.195" x2="53.34" y2="53.34" width="1.016" layer="16"/>
</signal>
<signal name="N$23">
<wire x1="50.8" y1="58.42" x2="54.61" y2="54.61" width="1.016" layer="16"/>
<contactref element="R15" pad="2"/>
<wire x1="57.15" y1="54.61" x2="54.61" y2="54.61" width="1.016" layer="16"/>
<contactref element="DS1" pad="PA3/9/A9"/>
<wire x1="49.53" y1="58.42" x2="50.8" y2="58.42" width="1.016" layer="16"/>
</signal>
<signal name="N$24">
<contactref element="R13" pad="1"/>
<wire x1="57.15" y1="60.96" x2="58.42" y2="62.23" width="1.016" layer="16"/>
<contactref element="DS1" pad="PA2/8/8-C/A8/MISO"/>
<wire x1="49.53" y1="60.96" x2="57.15" y2="60.96" width="1.016" layer="16"/>
</signal>
<signal name="N$26">
<contactref element="Q2" pad="G"/>
<contactref element="R16" pad="2"/>
<wire x1="60.96" y1="53.34" x2="58.42" y2="53.34" width="1.016" layer="16"/>
<wire x1="55.88" y1="50.8" x2="55.88" y2="49.53" width="1.016" layer="16"/>
<contactref element="R15" pad="1"/>
<wire x1="58.42" y1="53.34" x2="57.15" y2="52.07" width="1.016" layer="16"/>
<wire x1="57.15" y1="52.07" x2="55.88" y2="50.8" width="1.016" layer="16"/>
</signal>
<signal name="MIRROR2_OUT">
<contactref element="Q2" pad="D"/>
<contactref element="Q1" pad="D"/>
<wire x1="63.5" y1="48.21368125" x2="63.5" y2="53.34" width="2.032" layer="16"/>
<wire x1="63.5" y1="53.34" x2="63.5" y2="58.42" width="2.032" layer="16"/>
<wire x1="64.84368125" y1="46.87" x2="63.5" y2="48.21368125" width="2.032" layer="16"/>
<contactref element="CONN" pad="P$9"/>
<wire x1="83.82" y1="49.37" x2="81.755" y2="49.37" width="2.032" layer="16"/>
<wire x1="79.255" y1="46.87" x2="64.84368125" y2="46.87" width="2.032" layer="16"/>
<wire x1="81.755" y1="49.37" x2="79.255" y2="46.87" width="2.032" layer="16"/>
</signal>
<signal name="MAGNETICSWITCH_OUT">
<contactref element="Q5" pad="D"/>
<wire x1="76.2" y1="30.48" x2="74.93" y2="29.21" width="2.032" layer="16"/>
<wire x1="74.93" y1="29.21" x2="74.93" y2="24.13" width="2.032" layer="16"/>
<wire x1="76.2" y1="40.64" x2="76.2" y2="30.48" width="2.032" layer="1"/>
<via x="76.2" y="40.64" extent="1-16" drill="1" diameter="1.778"/>
<via x="76.2" y="30.48" extent="1-16" drill="1" diameter="1.778"/>
<wire x1="77.43" y1="41.87" x2="76.2" y2="40.64" width="2.032" layer="16"/>
<contactref element="CONN" pad="P$6"/>
<wire x1="83.82" y1="41.87" x2="77.43" y2="41.87" width="2.032" layer="16"/>
</signal>
<signal name="N$31">
<contactref element="R21" pad="1"/>
<contactref element="Q5" pad="G"/>
<contactref element="R22" pad="1"/>
<wire x1="68.58" y1="27.94" x2="68.58" y2="24.13" width="1.016" layer="16"/>
<wire x1="68.58" y1="24.13" x2="72.39" y2="24.13" width="1.016" layer="16"/>
</signal>
<signal name="VCC">
<contactref element="R18" pad="1"/>
<contactref element="Q3" pad="S"/>
<contactref element="Q1" pad="S"/>
<contactref element="R22" pad="2"/>
<contactref element="Q5" pad="S"/>
<contactref element="D2" pad="A"/>
<wire x1="68.58" y1="41.91" x2="68.58" y2="40.64" width="1.016" layer="16"/>
<wire x1="68.58" y1="40.64" x2="67.31" y2="39.37" width="1.016" layer="16"/>
<wire x1="76.2" y1="35.56" x2="71.17" y2="35.56" width="2.032" layer="16"/>
<wire x1="71.12" y1="35.61" x2="71.17" y2="35.56" width="2.032" layer="16"/>
<wire x1="78.74" y1="38.1" x2="76.2" y2="35.56" width="2.032" layer="16"/>
<wire x1="71.12" y1="35.61" x2="66.09" y2="35.61" width="2.032" layer="16"/>
<wire x1="66.09" y1="35.61" x2="66.04" y2="35.56" width="2.032" layer="16"/>
<wire x1="77.47" y1="24.13" x2="78.74" y2="25.4" width="2.032" layer="16"/>
<wire x1="78.74" y1="25.4" x2="78.74" y2="27.94" width="2.032" layer="16"/>
<wire x1="71.12" y1="54.61" x2="71.12" y2="35.61" width="2.032" layer="1"/>
<via x="78.74" y="38.1" extent="1-16" drill="1" diameter="1.778"/>
<via x="71.12" y="54.61" extent="1-16" drill="1" diameter="1.778"/>
<via x="71.12" y="35.61" extent="1-16" drill="1" diameter="1.778"/>
<wire x1="78.74" y1="27.94" x2="78.74" y2="30.48" width="2.032" layer="16"/>
<via x="78.74" y="30.48" extent="1-16" drill="1" diameter="1.778"/>
<wire x1="78.74" y1="30.48" x2="78.74" y2="38.1" width="2.032" layer="1"/>
<contactref element="R14" pad="2"/>
<wire x1="66.04" y1="62.23" x2="66.04" y2="58.42" width="1.016" layer="16"/>
<contactref element="CONN" pad="P$5"/>
<wire x1="83.82" y1="39.37" x2="80.01" y2="39.37" width="2.032" layer="16"/>
<wire x1="80.01" y1="39.37" x2="78.74" y2="38.1" width="2.032" layer="16"/>
<wire x1="66.04" y1="58.42" x2="69.85" y2="54.61" width="2.032" layer="16"/>
<wire x1="69.85" y1="54.61" x2="71.12" y2="54.61" width="2.032" layer="16"/>
<wire x1="66.04" y1="35.56" x2="66.04" y2="38.1" width="1.016" layer="16"/>
<wire x1="66.04" y1="38.1" x2="67.31" y2="39.37" width="1.016" layer="16"/>
</signal>
<signal name="N$10">
<contactref element="R9" pad="1"/>
<wire x1="63.5" y1="21.59" x2="63.5" y2="19.05" width="1.016" layer="16"/>
<contactref element="R10" pad="2"/>
<wire x1="63.5" y1="21.59" x2="60.96" y2="21.59" width="1.016" layer="16"/>
<wire x1="78.74" y1="17.145" x2="81.28" y2="19.685" width="1.016" layer="16"/>
<wire x1="63.5" y1="19.05" x2="65.405" y2="17.145" width="1.016" layer="16"/>
<wire x1="65.405" y1="17.145" x2="78.74" y2="17.145" width="1.016" layer="16"/>
<contactref element="CONN" pad="P$3"/>
<wire x1="83.82" y1="34.37" x2="81.28" y2="31.83" width="1.016" layer="16"/>
<wire x1="81.28" y1="31.83" x2="81.28" y2="19.685" width="1.016" layer="16"/>
</signal>
<signal name="N$2">
<contactref element="D2" pad="C"/>
<contactref element="C5" pad="1"/>
<contactref element="C6" pad="1"/>
<contactref element="R11" pad="2"/>
<wire x1="58.42" y1="41.91" x2="56.515" y2="41.91" width="1.016" layer="16"/>
<wire x1="56.515" y1="41.91" x2="55.245" y2="43.18" width="1.016" layer="16"/>
<wire x1="55.245" y1="43.18" x2="55.245" y2="39.37" width="1.016" layer="16"/>
<wire x1="55.245" y1="39.37" x2="55.245" y2="36.83" width="1.016" layer="16"/>
<wire x1="55.245" y1="45.72" x2="34.29" y2="45.72" width="1.016" layer="1"/>
<wire x1="55.245" y1="45.72" x2="55.245" y2="43.18" width="1.016" layer="16"/>
<via x="55.245" y="45.72" extent="1-16" drill="1" diameter="1.778"/>
<via x="34.29" y="45.72" extent="1-16" drill="1" diameter="1.778"/>
<contactref element="DS1" pad="VIN_6-16V0"/>
<wire x1="34.29" y1="48.26" x2="34.29" y2="45.72" width="1.016" layer="16"/>
</signal>
<signal name="N$11">
<contactref element="R13" pad="2"/>
<contactref element="Q1" pad="G"/>
<contactref element="R14" pad="1"/>
<wire x1="60.96" y1="62.23" x2="63.5" y2="62.23" width="1.016" layer="16"/>
<wire x1="60.96" y1="62.23" x2="60.96" y2="58.42" width="1.016" layer="16"/>
</signal>
<signal name="N$3">
<contactref element="CONN" pad="P$1"/>
<contactref element="R7" pad="2"/>
<contactref element="R8" pad="1"/>
<wire x1="55.88" y1="19.05" x2="54.61" y2="19.05" width="1.016" layer="16"/>
<wire x1="48.26" y1="25.4" x2="54.61" y2="19.05" width="1.016" layer="16"/>
<wire x1="59.055" y1="15.875" x2="55.88" y2="19.05" width="1.016" layer="16"/>
<wire x1="48.26" y1="40.64" x2="48.26" y2="25.4" width="1.016" layer="16"/>
<wire x1="83.82" y1="19.685" x2="80.01" y2="15.875" width="1.016" layer="16"/>
<wire x1="80.01" y1="15.875" x2="59.055" y2="15.875" width="1.016" layer="16"/>
<wire x1="83.82" y1="29.37" x2="83.82" y2="19.685" width="1.016" layer="16"/>
</signal>
<signal name="N$12">
<contactref element="CONN" pad="P$2"/>
<contactref element="R11" pad="1"/>
<contactref element="R12" pad="1"/>
<wire x1="86.36" y1="19.05" x2="79.375" y2="12.065" width="1.016" layer="16"/>
<wire x1="45.085" y1="23.495" x2="45.085" y2="36.83" width="1.016" layer="16"/>
<wire x1="79.375" y1="12.065" x2="56.515" y2="12.065" width="1.016" layer="16"/>
<wire x1="53.34" y1="15.24" x2="56.515" y2="12.065" width="1.016" layer="16"/>
<wire x1="53.34" y1="15.24" x2="45.085" y2="23.495" width="1.016" layer="16"/>
<wire x1="83.82" y1="31.87" x2="86.36" y2="29.33" width="1.016" layer="16"/>
<wire x1="86.36" y1="29.33" x2="86.36" y2="19.05" width="1.016" layer="16"/>
</signal>
<signal name="N$13">
<contactref element="DS1" pad="PB1/1/1-B/LED"/>
<contactref element="R23" pad="2"/>
<wire x1="34.29" y1="63.5" x2="35.56" y2="63.5" width="1.016" layer="16"/>
<wire x1="35.56" y1="63.5" x2="40.64" y2="58.42" width="1.016" layer="16"/>
<wire x1="40.64" y1="41.91" x2="40.64" y2="58.42" width="1.016" layer="16"/>
<wire x1="43.18" y1="40.64" x2="41.91" y2="40.64" width="1.016" layer="16"/>
<wire x1="41.91" y1="40.64" x2="40.64" y2="41.91" width="1.016" layer="16"/>
</signal>
<signal name="N$15">
<contactref element="R23" pad="1"/>
<contactref element="LED1" pad="A"/>
<wire x1="33.02" y1="40.64" x2="33.02" y2="38.1" width="1.016" layer="16"/>
<wire x1="33.02" y1="38.1" x2="34.29" y2="36.83" width="1.016" layer="16"/>
</signal>
</signals>
<mfgpreviewcolors>
<mfgpreviewcolor name="soldermaskcolor" color="0xC8008000"/>
<mfgpreviewcolor name="silkscreencolor" color="0xFFFEFEFE"/>
<mfgpreviewcolor name="backgroundcolor" color="0xFF282828"/>
<mfgpreviewcolor name="coppercolor" color="0xFFFFBF00"/>
<mfgpreviewcolor name="substratecolor" color="0xFF786E46"/>
</mfgpreviewcolors>
</board>
</drawing>
<compatibility>
<note version="8.2" severity="warning">
Since Version 8.2, EAGLE supports online libraries. The ids
of those online libraries will not be understood (or retained)
with this version.
</note>
<note version="8.3" severity="warning">
Since Version 8.3, EAGLE supports URNs for individual library
assets (packages, symbols, and devices). The URNs of those assets
will not be understood (or retained) with this version.
</note>
<note version="8.3" severity="warning">
Since Version 8.3, EAGLE supports the association of 3D packages
with devices in libraries, schematics, and board files. Those 3D
packages will not be understood (or retained) with this version.
</note>
</compatibility>
</eagle>
